[
{
  "directory": "/ustcfs2/yfu/pku_resbos/NewResBos2Test/resbos2/buildFit/_deps/fmt-build",
  "command": "/cvmfs/sft.cern.ch/lcg/releases/gcc/8.3.0-cebb0/x86_64-centos7/bin/g++  -DFITTING -DFMT_EXPORT -DFMT_LOCALE -DHAVE_ROOT -DLOGURU_UNSAFE_SIGNAL_HANDLER=0 -DLOGURU_WITH_STREAMS=1 -DROOT6 -Dfmt_EXPORTS -I/cvmfs/sft.cern.ch/lcg/releases/LCG_97a/ROOT/v6.20.06/x86_64-centos7-gcc8-opt/include -I/ustcfs2/yfu/pku_resbos/NewResBos2Test/resbos2/buildFit/_deps/fmt-src/include  -O3 -DNDEBUG -fPIC   -std=gnu++11 -o CMakeFiles/fmt.dir/src/format.cc.o -c /ustcfs2/yfu/pku_resbos/NewResBos2Test/resbos2/buildFit/_deps/fmt-src/src/format.cc",
  "file": "/ustcfs2/yfu/pku_resbos/NewResBos2Test/resbos2/buildFit/_deps/fmt-src/src/format.cc"
},
{
  "directory": "/ustcfs2/yfu/pku_resbos/NewResBos2Test/resbos2/buildFit/_deps/fmt-build",
  "command": "/cvmfs/sft.cern.ch/lcg/releases/gcc/8.3.0-cebb0/x86_64-centos7/bin/g++  -DFITTING -DFMT_EXPORT -DFMT_LOCALE -DHAVE_ROOT -DLOGURU_UNSAFE_SIGNAL_HANDLER=0 -DLOGURU_WITH_STREAMS=1 -DROOT6 -Dfmt_EXPORTS -I/cvmfs/sft.cern.ch/lcg/releases/LCG_97a/ROOT/v6.20.06/x86_64-centos7-gcc8-opt/include -I/ustcfs2/yfu/pku_resbos/NewResBos2Test/resbos2/buildFit/_deps/fmt-src/include  -O3 -DNDEBUG -fPIC   -std=gnu++11 -o CMakeFiles/fmt.dir/src/os.cc.o -c /ustcfs2/yfu/pku_resbos/NewResBos2Test/resbos2/buildFit/_deps/fmt-src/src/os.cc",
  "file": "/ustcfs2/yfu/pku_resbos/NewResBos2Test/resbos2/buildFit/_deps/fmt-src/src/os.cc"
},
{
  "directory": "/ustcfs2/yfu/pku_resbos/NewResBos2Test/resbos2/buildFit/_deps/yaml-cpp-build",
  "command": "/cvmfs/sft.cern.ch/lcg/releases/gcc/8.3.0-cebb0/x86_64-centos7/bin/g++  -DFITTING -DHAVE_ROOT -DLOGURU_UNSAFE_SIGNAL_HANDLER=0 -DLOGURU_WITH_STREAMS=1 -DROOT6 -DYAML_CPP_NO_CONTRIB -Dyaml_cpp_EXPORTS -I/cvmfs/sft.cern.ch/lcg/releases/LCG_97a/ROOT/v6.20.06/x86_64-centos7-gcc8-opt/include -I/ustcfs2/yfu/pku_resbos/NewResBos2Test/resbos2/buildFit/_deps/yaml-cpp-src/include -I/ustcfs2/yfu/pku_resbos/NewResBos2Test/resbos2/buildFit/_deps/yaml-cpp-src/src  -O3 -DNDEBUG -fPIC   -Wall -Wextra -Wshadow -Weffc++ -Wno-long-long -pedantic -pedantic-errors -std=gnu++11 -o CMakeFiles/yaml-cpp.dir/src/binary.cpp.o -c /ustcfs2/yfu/pku_resbos/NewResBos2Test/resbos2/buildFit/_deps/yaml-cpp-src/src/binary.cpp",
  "file": "/ustcfs2/yfu/pku_resbos/NewResBos2Test/resbos2/buildFit/_deps/yaml-cpp-src/src/binary.cpp"
},
{
  "directory": "/ustcfs2/yfu/pku_resbos/NewResBos2Test/resbos2/buildFit/_deps/yaml-cpp-build",
  "command": "/cvmfs/sft.cern.ch/lcg/releases/gcc/8.3.0-cebb0/x86_64-centos7/bin/g++  -DFITTING -DHAVE_ROOT -DLOGURU_UNSAFE_SIGNAL_HANDLER=0 -DLOGURU_WITH_STREAMS=1 -DROOT6 -DYAML_CPP_NO_CONTRIB -Dyaml_cpp_EXPORTS -I/cvmfs/sft.cern.ch/lcg/releases/LCG_97a/ROOT/v6.20.06/x86_64-centos7-gcc8-opt/include -I/ustcfs2/yfu/pku_resbos/NewResBos2Test/resbos2/buildFit/_deps/yaml-cpp-src/include -I/ustcfs2/yfu/pku_resbos/NewResBos2Test/resbos2/buildFit/_deps/yaml-cpp-src/src  -O3 -DNDEBUG -fPIC   -Wall -Wextra -Wshadow -Weffc++ -Wno-long-long -pedantic -pedantic-errors -std=gnu++11 -o CMakeFiles/yaml-cpp.dir/src/convert.cpp.o -c /ustcfs2/yfu/pku_resbos/NewResBos2Test/resbos2/buildFit/_deps/yaml-cpp-src/src/convert.cpp",
  "file": "/ustcfs2/yfu/pku_resbos/NewResBos2Test/resbos2/buildFit/_deps/yaml-cpp-src/src/convert.cpp"
},
{
  "directory": "/ustcfs2/yfu/pku_resbos/NewResBos2Test/resbos2/buildFit/_deps/yaml-cpp-build",
  "command": "/cvmfs/sft.cern.ch/lcg/releases/gcc/8.3.0-cebb0/x86_64-centos7/bin/g++  -DFITTING -DHAVE_ROOT -DLOGURU_UNSAFE_SIGNAL_HANDLER=0 -DLOGURU_WITH_STREAMS=1 -DROOT6 -DYAML_CPP_NO_CONTRIB -Dyaml_cpp_EXPORTS -I/cvmfs/sft.cern.ch/lcg/releases/LCG_97a/ROOT/v6.20.06/x86_64-centos7-gcc8-opt/include -I/ustcfs2/yfu/pku_resbos/NewResBos2Test/resbos2/buildFit/_deps/yaml-cpp-src/include -I/ustcfs2/yfu/pku_resbos/NewResBos2Test/resbos2/buildFit/_deps/yaml-cpp-src/src  -O3 -DNDEBUG -fPIC   -Wall -Wextra -Wshadow -Weffc++ -Wno-long-long -pedantic -pedantic-errors -std=gnu++11 -o CMakeFiles/yaml-cpp.dir/src/depthguard.cpp.o -c /ustcfs2/yfu/pku_resbos/NewResBos2Test/resbos2/buildFit/_deps/yaml-cpp-src/src/depthguard.cpp",
  "file": "/ustcfs2/yfu/pku_resbos/NewResBos2Test/resbos2/buildFit/_deps/yaml-cpp-src/src/depthguard.cpp"
},
{
  "directory": "/ustcfs2/yfu/pku_resbos/NewResBos2Test/resbos2/buildFit/_deps/yaml-cpp-build",
  "command": "/cvmfs/sft.cern.ch/lcg/releases/gcc/8.3.0-cebb0/x86_64-centos7/bin/g++  -DFITTING -DHAVE_ROOT -DLOGURU_UNSAFE_SIGNAL_HANDLER=0 -DLOGURU_WITH_STREAMS=1 -DROOT6 -DYAML_CPP_NO_CONTRIB -Dyaml_cpp_EXPORTS -I/cvmfs/sft.cern.ch/lcg/releases/LCG_97a/ROOT/v6.20.06/x86_64-centos7-gcc8-opt/include -I/ustcfs2/yfu/pku_resbos/NewResBos2Test/resbos2/buildFit/_deps/yaml-cpp-src/include -I/ustcfs2/yfu/pku_resbos/NewResBos2Test/resbos2/buildFit/_deps/yaml-cpp-src/src  -O3 -DNDEBUG -fPIC   -Wall -Wextra -Wshadow -Weffc++ -Wno-long-long -pedantic -pedantic-errors -std=gnu++11 -o CMakeFiles/yaml-cpp.dir/src/directives.cpp.o -c /ustcfs2/yfu/pku_resbos/NewResBos2Test/resbos2/buildFit/_deps/yaml-cpp-src/src/directives.cpp",
  "file": "/ustcfs2/yfu/pku_resbos/NewResBos2Test/resbos2/buildFit/_deps/yaml-cpp-src/src/directives.cpp"
},
{
  "directory": "/ustcfs2/yfu/pku_resbos/NewResBos2Test/resbos2/buildFit/_deps/yaml-cpp-build",
  "command": "/cvmfs/sft.cern.ch/lcg/releases/gcc/8.3.0-cebb0/x86_64-centos7/bin/g++  -DFITTING -DHAVE_ROOT -DLOGURU_UNSAFE_SIGNAL_HANDLER=0 -DLOGURU_WITH_STREAMS=1 -DROOT6 -DYAML_CPP_NO_CONTRIB -Dyaml_cpp_EXPORTS -I/cvmfs/sft.cern.ch/lcg/releases/LCG_97a/ROOT/v6.20.06/x86_64-centos7-gcc8-opt/include -I/ustcfs2/yfu/pku_resbos/NewResBos2Test/resbos2/buildFit/_deps/yaml-cpp-src/include -I/ustcfs2/yfu/pku_resbos/NewResBos2Test/resbos2/buildFit/_deps/yaml-cpp-src/src  -O3 -DNDEBUG -fPIC   -Wall -Wextra -Wshadow -Weffc++ -Wno-long-long -pedantic -pedantic-errors -std=gnu++11 -o CMakeFiles/yaml-cpp.dir/src/emit.cpp.o -c /ustcfs2/yfu/pku_resbos/NewResBos2Test/resbos2/buildFit/_deps/yaml-cpp-src/src/emit.cpp",
  "file": "/ustcfs2/yfu/pku_resbos/NewResBos2Test/resbos2/buildFit/_deps/yaml-cpp-src/src/emit.cpp"
},
{
  "directory": "/ustcfs2/yfu/pku_resbos/NewResBos2Test/resbos2/buildFit/_deps/yaml-cpp-build",
  "command": "/cvmfs/sft.cern.ch/lcg/releases/gcc/8.3.0-cebb0/x86_64-centos7/bin/g++  -DFITTING -DHAVE_ROOT -DLOGURU_UNSAFE_SIGNAL_HANDLER=0 -DLOGURU_WITH_STREAMS=1 -DROOT6 -DYAML_CPP_NO_CONTRIB -Dyaml_cpp_EXPORTS -I/cvmfs/sft.cern.ch/lcg/releases/LCG_97a/ROOT/v6.20.06/x86_64-centos7-gcc8-opt/include -I/ustcfs2/yfu/pku_resbos/NewResBos2Test/resbos2/buildFit/_deps/yaml-cpp-src/include -I/ustcfs2/yfu/pku_resbos/NewResBos2Test/resbos2/buildFit/_deps/yaml-cpp-src/src  -O3 -DNDEBUG -fPIC   -Wall -Wextra -Wshadow -Weffc++ -Wno-long-long -pedantic -pedantic-errors -std=gnu++11 -o CMakeFiles/yaml-cpp.dir/src/emitfromevents.cpp.o -c /ustcfs2/yfu/pku_resbos/NewResBos2Test/resbos2/buildFit/_deps/yaml-cpp-src/src/emitfromevents.cpp",
  "file": "/ustcfs2/yfu/pku_resbos/NewResBos2Test/resbos2/buildFit/_deps/yaml-cpp-src/src/emitfromevents.cpp"
},
{
  "directory": "/ustcfs2/yfu/pku_resbos/NewResBos2Test/resbos2/buildFit/_deps/yaml-cpp-build",
  "command": "/cvmfs/sft.cern.ch/lcg/releases/gcc/8.3.0-cebb0/x86_64-centos7/bin/g++  -DFITTING -DHAVE_ROOT -DLOGURU_UNSAFE_SIGNAL_HANDLER=0 -DLOGURU_WITH_STREAMS=1 -DROOT6 -DYAML_CPP_NO_CONTRIB -Dyaml_cpp_EXPORTS -I/cvmfs/sft.cern.ch/lcg/releases/LCG_97a/ROOT/v6.20.06/x86_64-centos7-gcc8-opt/include -I/ustcfs2/yfu/pku_resbos/NewResBos2Test/resbos2/buildFit/_deps/yaml-cpp-src/include -I/ustcfs2/yfu/pku_resbos/NewResBos2Test/resbos2/buildFit/_deps/yaml-cpp-src/src  -O3 -DNDEBUG -fPIC   -Wall -Wextra -Wshadow -Weffc++ -Wno-long-long -pedantic -pedantic-errors -std=gnu++11 -o CMakeFiles/yaml-cpp.dir/src/emitter.cpp.o -c /ustcfs2/yfu/pku_resbos/NewResBos2Test/resbos2/buildFit/_deps/yaml-cpp-src/src/emitter.cpp",
  "file": "/ustcfs2/yfu/pku_resbos/NewResBos2Test/resbos2/buildFit/_deps/yaml-cpp-src/src/emitter.cpp"
},
{
  "directory": "/ustcfs2/yfu/pku_resbos/NewResBos2Test/resbos2/buildFit/_deps/yaml-cpp-build",
  "command": "/cvmfs/sft.cern.ch/lcg/releases/gcc/8.3.0-cebb0/x86_64-centos7/bin/g++  -DFITTING -DHAVE_ROOT -DLOGURU_UNSAFE_SIGNAL_HANDLER=0 -DLOGURU_WITH_STREAMS=1 -DROOT6 -DYAML_CPP_NO_CONTRIB -Dyaml_cpp_EXPORTS -I/cvmfs/sft.cern.ch/lcg/releases/LCG_97a/ROOT/v6.20.06/x86_64-centos7-gcc8-opt/include -I/ustcfs2/yfu/pku_resbos/NewResBos2Test/resbos2/buildFit/_deps/yaml-cpp-src/include -I/ustcfs2/yfu/pku_resbos/NewResBos2Test/resbos2/buildFit/_deps/yaml-cpp-src/src  -O3 -DNDEBUG -fPIC   -Wall -Wextra -Wshadow -Weffc++ -Wno-long-long -pedantic -pedantic-errors -std=gnu++11 -o CMakeFiles/yaml-cpp.dir/src/emitterstate.cpp.o -c /ustcfs2/yfu/pku_resbos/NewResBos2Test/resbos2/buildFit/_deps/yaml-cpp-src/src/emitterstate.cpp",
  "file": "/ustcfs2/yfu/pku_resbos/NewResBos2Test/resbos2/buildFit/_deps/yaml-cpp-src/src/emitterstate.cpp"
},
{
  "directory": "/ustcfs2/yfu/pku_resbos/NewResBos2Test/resbos2/buildFit/_deps/yaml-cpp-build",
  "command": "/cvmfs/sft.cern.ch/lcg/releases/gcc/8.3.0-cebb0/x86_64-centos7/bin/g++  -DFITTING -DHAVE_ROOT -DLOGURU_UNSAFE_SIGNAL_HANDLER=0 -DLOGURU_WITH_STREAMS=1 -DROOT6 -DYAML_CPP_NO_CONTRIB -Dyaml_cpp_EXPORTS -I/cvmfs/sft.cern.ch/lcg/releases/LCG_97a/ROOT/v6.20.06/x86_64-centos7-gcc8-opt/include -I/ustcfs2/yfu/pku_resbos/NewResBos2Test/resbos2/buildFit/_deps/yaml-cpp-src/include -I/ustcfs2/yfu/pku_resbos/NewResBos2Test/resbos2/buildFit/_deps/yaml-cpp-src/src  -O3 -DNDEBUG -fPIC   -Wall -Wextra -Wshadow -Weffc++ -Wno-long-long -pedantic -pedantic-errors -std=gnu++11 -o CMakeFiles/yaml-cpp.dir/src/emitterutils.cpp.o -c /ustcfs2/yfu/pku_resbos/NewResBos2Test/resbos2/buildFit/_deps/yaml-cpp-src/src/emitterutils.cpp",
  "file": "/ustcfs2/yfu/pku_resbos/NewResBos2Test/resbos2/buildFit/_deps/yaml-cpp-src/src/emitterutils.cpp"
},
{
  "directory": "/ustcfs2/yfu/pku_resbos/NewResBos2Test/resbos2/buildFit/_deps/yaml-cpp-build",
  "command": "/cvmfs/sft.cern.ch/lcg/releases/gcc/8.3.0-cebb0/x86_64-centos7/bin/g++  -DFITTING -DHAVE_ROOT -DLOGURU_UNSAFE_SIGNAL_HANDLER=0 -DLOGURU_WITH_STREAMS=1 -DROOT6 -DYAML_CPP_NO_CONTRIB -Dyaml_cpp_EXPORTS -I/cvmfs/sft.cern.ch/lcg/releases/LCG_97a/ROOT/v6.20.06/x86_64-centos7-gcc8-opt/include -I/ustcfs2/yfu/pku_resbos/NewResBos2Test/resbos2/buildFit/_deps/yaml-cpp-src/include -I/ustcfs2/yfu/pku_resbos/NewResBos2Test/resbos2/buildFit/_deps/yaml-cpp-src/src  -O3 -DNDEBUG -fPIC   -Wall -Wextra -Wshadow -Weffc++ -Wno-long-long -pedantic -pedantic-errors -std=gnu++11 -o CMakeFiles/yaml-cpp.dir/src/exceptions.cpp.o -c /ustcfs2/yfu/pku_resbos/NewResBos2Test/resbos2/buildFit/_deps/yaml-cpp-src/src/exceptions.cpp",
  "file": "/ustcfs2/yfu/pku_resbos/NewResBos2Test/resbos2/buildFit/_deps/yaml-cpp-src/src/exceptions.cpp"
},
{
  "directory": "/ustcfs2/yfu/pku_resbos/NewResBos2Test/resbos2/buildFit/_deps/yaml-cpp-build",
  "command": "/cvmfs/sft.cern.ch/lcg/releases/gcc/8.3.0-cebb0/x86_64-centos7/bin/g++  -DFITTING -DHAVE_ROOT -DLOGURU_UNSAFE_SIGNAL_HANDLER=0 -DLOGURU_WITH_STREAMS=1 -DROOT6 -DYAML_CPP_NO_CONTRIB -Dyaml_cpp_EXPORTS -I/cvmfs/sft.cern.ch/lcg/releases/LCG_97a/ROOT/v6.20.06/x86_64-centos7-gcc8-opt/include -I/ustcfs2/yfu/pku_resbos/NewResBos2Test/resbos2/buildFit/_deps/yaml-cpp-src/include -I/ustcfs2/yfu/pku_resbos/NewResBos2Test/resbos2/buildFit/_deps/yaml-cpp-src/src  -O3 -DNDEBUG -fPIC   -Wall -Wextra -Wshadow -Weffc++ -Wno-long-long -pedantic -pedantic-errors -std=gnu++11 -o CMakeFiles/yaml-cpp.dir/src/exp.cpp.o -c /ustcfs2/yfu/pku_resbos/NewResBos2Test/resbos2/buildFit/_deps/yaml-cpp-src/src/exp.cpp",
  "file": "/ustcfs2/yfu/pku_resbos/NewResBos2Test/resbos2/buildFit/_deps/yaml-cpp-src/src/exp.cpp"
},
{
  "directory": "/ustcfs2/yfu/pku_resbos/NewResBos2Test/resbos2/buildFit/_deps/yaml-cpp-build",
  "command": "/cvmfs/sft.cern.ch/lcg/releases/gcc/8.3.0-cebb0/x86_64-centos7/bin/g++  -DFITTING -DHAVE_ROOT -DLOGURU_UNSAFE_SIGNAL_HANDLER=0 -DLOGURU_WITH_STREAMS=1 -DROOT6 -DYAML_CPP_NO_CONTRIB -Dyaml_cpp_EXPORTS -I/cvmfs/sft.cern.ch/lcg/releases/LCG_97a/ROOT/v6.20.06/x86_64-centos7-gcc8-opt/include -I/ustcfs2/yfu/pku_resbos/NewResBos2Test/resbos2/buildFit/_deps/yaml-cpp-src/include -I/ustcfs2/yfu/pku_resbos/NewResBos2Test/resbos2/buildFit/_deps/yaml-cpp-src/src  -O3 -DNDEBUG -fPIC   -Wall -Wextra -Wshadow -Weffc++ -Wno-long-long -pedantic -pedantic-errors -std=gnu++11 -o CMakeFiles/yaml-cpp.dir/src/memory.cpp.o -c /ustcfs2/yfu/pku_resbos/NewResBos2Test/resbos2/buildFit/_deps/yaml-cpp-src/src/memory.cpp",
  "file": "/ustcfs2/yfu/pku_resbos/NewResBos2Test/resbos2/buildFit/_deps/yaml-cpp-src/src/memory.cpp"
},
{
  "directory": "/ustcfs2/yfu/pku_resbos/NewResBos2Test/resbos2/buildFit/_deps/yaml-cpp-build",
  "command": "/cvmfs/sft.cern.ch/lcg/releases/gcc/8.3.0-cebb0/x86_64-centos7/bin/g++  -DFITTING -DHAVE_ROOT -DLOGURU_UNSAFE_SIGNAL_HANDLER=0 -DLOGURU_WITH_STREAMS=1 -DROOT6 -DYAML_CPP_NO_CONTRIB -Dyaml_cpp_EXPORTS -I/cvmfs/sft.cern.ch/lcg/releases/LCG_97a/ROOT/v6.20.06/x86_64-centos7-gcc8-opt/include -I/ustcfs2/yfu/pku_resbos/NewResBos2Test/resbos2/buildFit/_deps/yaml-cpp-src/include -I/ustcfs2/yfu/pku_resbos/NewResBos2Test/resbos2/buildFit/_deps/yaml-cpp-src/src  -O3 -DNDEBUG -fPIC   -Wall -Wextra -Wshadow -Weffc++ -Wno-long-long -pedantic -pedantic-errors -std=gnu++11 -o CMakeFiles/yaml-cpp.dir/src/node.cpp.o -c /ustcfs2/yfu/pku_resbos/NewResBos2Test/resbos2/buildFit/_deps/yaml-cpp-src/src/node.cpp",
  "file": "/ustcfs2/yfu/pku_resbos/NewResBos2Test/resbos2/buildFit/_deps/yaml-cpp-src/src/node.cpp"
},
{
  "directory": "/ustcfs2/yfu/pku_resbos/NewResBos2Test/resbos2/buildFit/_deps/yaml-cpp-build",
  "command": "/cvmfs/sft.cern.ch/lcg/releases/gcc/8.3.0-cebb0/x86_64-centos7/bin/g++  -DFITTING -DHAVE_ROOT -DLOGURU_UNSAFE_SIGNAL_HANDLER=0 -DLOGURU_WITH_STREAMS=1 -DROOT6 -DYAML_CPP_NO_CONTRIB -Dyaml_cpp_EXPORTS -I/cvmfs/sft.cern.ch/lcg/releases/LCG_97a/ROOT/v6.20.06/x86_64-centos7-gcc8-opt/include -I/ustcfs2/yfu/pku_resbos/NewResBos2Test/resbos2/buildFit/_deps/yaml-cpp-src/include -I/ustcfs2/yfu/pku_resbos/NewResBos2Test/resbos2/buildFit/_deps/yaml-cpp-src/src  -O3 -DNDEBUG -fPIC   -Wall -Wextra -Wshadow -Weffc++ -Wno-long-long -pedantic -pedantic-errors -std=gnu++11 -o CMakeFiles/yaml-cpp.dir/src/node_data.cpp.o -c /ustcfs2/yfu/pku_resbos/NewResBos2Test/resbos2/buildFit/_deps/yaml-cpp-src/src/node_data.cpp",
  "file": "/ustcfs2/yfu/pku_resbos/NewResBos2Test/resbos2/buildFit/_deps/yaml-cpp-src/src/node_data.cpp"
},
{
  "directory": "/ustcfs2/yfu/pku_resbos/NewResBos2Test/resbos2/buildFit/_deps/yaml-cpp-build",
  "command": "/cvmfs/sft.cern.ch/lcg/releases/gcc/8.3.0-cebb0/x86_64-centos7/bin/g++  -DFITTING -DHAVE_ROOT -DLOGURU_UNSAFE_SIGNAL_HANDLER=0 -DLOGURU_WITH_STREAMS=1 -DROOT6 -DYAML_CPP_NO_CONTRIB -Dyaml_cpp_EXPORTS -I/cvmfs/sft.cern.ch/lcg/releases/LCG_97a/ROOT/v6.20.06/x86_64-centos7-gcc8-opt/include -I/ustcfs2/yfu/pku_resbos/NewResBos2Test/resbos2/buildFit/_deps/yaml-cpp-src/include -I/ustcfs2/yfu/pku_resbos/NewResBos2Test/resbos2/buildFit/_deps/yaml-cpp-src/src  -O3 -DNDEBUG -fPIC   -Wall -Wextra -Wshadow -Weffc++ -Wno-long-long -pedantic -pedantic-errors -std=gnu++11 -o CMakeFiles/yaml-cpp.dir/src/nodebuilder.cpp.o -c /ustcfs2/yfu/pku_resbos/NewResBos2Test/resbos2/buildFit/_deps/yaml-cpp-src/src/nodebuilder.cpp",
  "file": "/ustcfs2/yfu/pku_resbos/NewResBos2Test/resbos2/buildFit/_deps/yaml-cpp-src/src/nodebuilder.cpp"
},
{
  "directory": "/ustcfs2/yfu/pku_resbos/NewResBos2Test/resbos2/buildFit/_deps/yaml-cpp-build",
  "command": "/cvmfs/sft.cern.ch/lcg/releases/gcc/8.3.0-cebb0/x86_64-centos7/bin/g++  -DFITTING -DHAVE_ROOT -DLOGURU_UNSAFE_SIGNAL_HANDLER=0 -DLOGURU_WITH_STREAMS=1 -DROOT6 -DYAML_CPP_NO_CONTRIB -Dyaml_cpp_EXPORTS -I/cvmfs/sft.cern.ch/lcg/releases/LCG_97a/ROOT/v6.20.06/x86_64-centos7-gcc8-opt/include -I/ustcfs2/yfu/pku_resbos/NewResBos2Test/resbos2/buildFit/_deps/yaml-cpp-src/include -I/ustcfs2/yfu/pku_resbos/NewResBos2Test/resbos2/buildFit/_deps/yaml-cpp-src/src  -O3 -DNDEBUG -fPIC   -Wall -Wextra -Wshadow -Weffc++ -Wno-long-long -pedantic -pedantic-errors -std=gnu++11 -o CMakeFiles/yaml-cpp.dir/src/nodeevents.cpp.o -c /ustcfs2/yfu/pku_resbos/NewResBos2Test/resbos2/buildFit/_deps/yaml-cpp-src/src/nodeevents.cpp",
  "file": "/ustcfs2/yfu/pku_resbos/NewResBos2Test/resbos2/buildFit/_deps/yaml-cpp-src/src/nodeevents.cpp"
},
{
  "directory": "/ustcfs2/yfu/pku_resbos/NewResBos2Test/resbos2/buildFit/_deps/yaml-cpp-build",
  "command": "/cvmfs/sft.cern.ch/lcg/releases/gcc/8.3.0-cebb0/x86_64-centos7/bin/g++  -DFITTING -DHAVE_ROOT -DLOGURU_UNSAFE_SIGNAL_HANDLER=0 -DLOGURU_WITH_STREAMS=1 -DROOT6 -DYAML_CPP_NO_CONTRIB -Dyaml_cpp_EXPORTS -I/cvmfs/sft.cern.ch/lcg/releases/LCG_97a/ROOT/v6.20.06/x86_64-centos7-gcc8-opt/include -I/ustcfs2/yfu/pku_resbos/NewResBos2Test/resbos2/buildFit/_deps/yaml-cpp-src/include -I/ustcfs2/yfu/pku_resbos/NewResBos2Test/resbos2/buildFit/_deps/yaml-cpp-src/src  -O3 -DNDEBUG -fPIC   -Wall -Wextra -Wshadow -Weffc++ -Wno-long-long -pedantic -pedantic-errors -std=gnu++11 -o CMakeFiles/yaml-cpp.dir/src/null.cpp.o -c /ustcfs2/yfu/pku_resbos/NewResBos2Test/resbos2/buildFit/_deps/yaml-cpp-src/src/null.cpp",
  "file": "/ustcfs2/yfu/pku_resbos/NewResBos2Test/resbos2/buildFit/_deps/yaml-cpp-src/src/null.cpp"
},
{
  "directory": "/ustcfs2/yfu/pku_resbos/NewResBos2Test/resbos2/buildFit/_deps/yaml-cpp-build",
  "command": "/cvmfs/sft.cern.ch/lcg/releases/gcc/8.3.0-cebb0/x86_64-centos7/bin/g++  -DFITTING -DHAVE_ROOT -DLOGURU_UNSAFE_SIGNAL_HANDLER=0 -DLOGURU_WITH_STREAMS=1 -DROOT6 -DYAML_CPP_NO_CONTRIB -Dyaml_cpp_EXPORTS -I/cvmfs/sft.cern.ch/lcg/releases/LCG_97a/ROOT/v6.20.06/x86_64-centos7-gcc8-opt/include -I/ustcfs2/yfu/pku_resbos/NewResBos2Test/resbos2/buildFit/_deps/yaml-cpp-src/include -I/ustcfs2/yfu/pku_resbos/NewResBos2Test/resbos2/buildFit/_deps/yaml-cpp-src/src  -O3 -DNDEBUG -fPIC   -Wall -Wextra -Wshadow -Weffc++ -Wno-long-long -pedantic -pedantic-errors -std=gnu++11 -o CMakeFiles/yaml-cpp.dir/src/ostream_wrapper.cpp.o -c /ustcfs2/yfu/pku_resbos/NewResBos2Test/resbos2/buildFit/_deps/yaml-cpp-src/src/ostream_wrapper.cpp",
  "file": "/ustcfs2/yfu/pku_resbos/NewResBos2Test/resbos2/buildFit/_deps/yaml-cpp-src/src/ostream_wrapper.cpp"
},
{
  "directory": "/ustcfs2/yfu/pku_resbos/NewResBos2Test/resbos2/buildFit/_deps/yaml-cpp-build",
  "command": "/cvmfs/sft.cern.ch/lcg/releases/gcc/8.3.0-cebb0/x86_64-centos7/bin/g++  -DFITTING -DHAVE_ROOT -DLOGURU_UNSAFE_SIGNAL_HANDLER=0 -DLOGURU_WITH_STREAMS=1 -DROOT6 -DYAML_CPP_NO_CONTRIB -Dyaml_cpp_EXPORTS -I/cvmfs/sft.cern.ch/lcg/releases/LCG_97a/ROOT/v6.20.06/x86_64-centos7-gcc8-opt/include -I/ustcfs2/yfu/pku_resbos/NewResBos2Test/resbos2/buildFit/_deps/yaml-cpp-src/include -I/ustcfs2/yfu/pku_resbos/NewResBos2Test/resbos2/buildFit/_deps/yaml-cpp-src/src  -O3 -DNDEBUG -fPIC   -Wall -Wextra -Wshadow -Weffc++ -Wno-long-long -pedantic -pedantic-errors -std=gnu++11 -o CMakeFiles/yaml-cpp.dir/src/parse.cpp.o -c /ustcfs2/yfu/pku_resbos/NewResBos2Test/resbos2/buildFit/_deps/yaml-cpp-src/src/parse.cpp",
  "file": "/ustcfs2/yfu/pku_resbos/NewResBos2Test/resbos2/buildFit/_deps/yaml-cpp-src/src/parse.cpp"
},
{
  "directory": "/ustcfs2/yfu/pku_resbos/NewResBos2Test/resbos2/buildFit/_deps/yaml-cpp-build",
  "command": "/cvmfs/sft.cern.ch/lcg/releases/gcc/8.3.0-cebb0/x86_64-centos7/bin/g++  -DFITTING -DHAVE_ROOT -DLOGURU_UNSAFE_SIGNAL_HANDLER=0 -DLOGURU_WITH_STREAMS=1 -DROOT6 -DYAML_CPP_NO_CONTRIB -Dyaml_cpp_EXPORTS -I/cvmfs/sft.cern.ch/lcg/releases/LCG_97a/ROOT/v6.20.06/x86_64-centos7-gcc8-opt/include -I/ustcfs2/yfu/pku_resbos/NewResBos2Test/resbos2/buildFit/_deps/yaml-cpp-src/include -I/ustcfs2/yfu/pku_resbos/NewResBos2Test/resbos2/buildFit/_deps/yaml-cpp-src/src  -O3 -DNDEBUG -fPIC   -Wall -Wextra -Wshadow -Weffc++ -Wno-long-long -pedantic -pedantic-errors -std=gnu++11 -o CMakeFiles/yaml-cpp.dir/src/parser.cpp.o -c /ustcfs2/yfu/pku_resbos/NewResBos2Test/resbos2/buildFit/_deps/yaml-cpp-src/src/parser.cpp",
  "file": "/ustcfs2/yfu/pku_resbos/NewResBos2Test/resbos2/buildFit/_deps/yaml-cpp-src/src/parser.cpp"
},
{
  "directory": "/ustcfs2/yfu/pku_resbos/NewResBos2Test/resbos2/buildFit/_deps/yaml-cpp-build",
  "command": "/cvmfs/sft.cern.ch/lcg/releases/gcc/8.3.0-cebb0/x86_64-centos7/bin/g++  -DFITTING -DHAVE_ROOT -DLOGURU_UNSAFE_SIGNAL_HANDLER=0 -DLOGURU_WITH_STREAMS=1 -DROOT6 -DYAML_CPP_NO_CONTRIB -Dyaml_cpp_EXPORTS -I/cvmfs/sft.cern.ch/lcg/releases/LCG_97a/ROOT/v6.20.06/x86_64-centos7-gcc8-opt/include -I/ustcfs2/yfu/pku_resbos/NewResBos2Test/resbos2/buildFit/_deps/yaml-cpp-src/include -I/ustcfs2/yfu/pku_resbos/NewResBos2Test/resbos2/buildFit/_deps/yaml-cpp-src/src  -O3 -DNDEBUG -fPIC   -Wall -Wextra -Wshadow -Weffc++ -Wno-long-long -pedantic -pedantic-errors -std=gnu++11 -o CMakeFiles/yaml-cpp.dir/src/regex_yaml.cpp.o -c /ustcfs2/yfu/pku_resbos/NewResBos2Test/resbos2/buildFit/_deps/yaml-cpp-src/src/regex_yaml.cpp",
  "file": "/ustcfs2/yfu/pku_resbos/NewResBos2Test/resbos2/buildFit/_deps/yaml-cpp-src/src/regex_yaml.cpp"
},
{
  "directory": "/ustcfs2/yfu/pku_resbos/NewResBos2Test/resbos2/buildFit/_deps/yaml-cpp-build",
  "command": "/cvmfs/sft.cern.ch/lcg/releases/gcc/8.3.0-cebb0/x86_64-centos7/bin/g++  -DFITTING -DHAVE_ROOT -DLOGURU_UNSAFE_SIGNAL_HANDLER=0 -DLOGURU_WITH_STREAMS=1 -DROOT6 -DYAML_CPP_NO_CONTRIB -Dyaml_cpp_EXPORTS -I/cvmfs/sft.cern.ch/lcg/releases/LCG_97a/ROOT/v6.20.06/x86_64-centos7-gcc8-opt/include -I/ustcfs2/yfu/pku_resbos/NewResBos2Test/resbos2/buildFit/_deps/yaml-cpp-src/include -I/ustcfs2/yfu/pku_resbos/NewResBos2Test/resbos2/buildFit/_deps/yaml-cpp-src/src  -O3 -DNDEBUG -fPIC   -Wall -Wextra -Wshadow -Weffc++ -Wno-long-long -pedantic -pedantic-errors -std=gnu++11 -o CMakeFiles/yaml-cpp.dir/src/scanner.cpp.o -c /ustcfs2/yfu/pku_resbos/NewResBos2Test/resbos2/buildFit/_deps/yaml-cpp-src/src/scanner.cpp",
  "file": "/ustcfs2/yfu/pku_resbos/NewResBos2Test/resbos2/buildFit/_deps/yaml-cpp-src/src/scanner.cpp"
},
{
  "directory": "/ustcfs2/yfu/pku_resbos/NewResBos2Test/resbos2/buildFit/_deps/yaml-cpp-build",
  "command": "/cvmfs/sft.cern.ch/lcg/releases/gcc/8.3.0-cebb0/x86_64-centos7/bin/g++  -DFITTING -DHAVE_ROOT -DLOGURU_UNSAFE_SIGNAL_HANDLER=0 -DLOGURU_WITH_STREAMS=1 -DROOT6 -DYAML_CPP_NO_CONTRIB -Dyaml_cpp_EXPORTS -I/cvmfs/sft.cern.ch/lcg/releases/LCG_97a/ROOT/v6.20.06/x86_64-centos7-gcc8-opt/include -I/ustcfs2/yfu/pku_resbos/NewResBos2Test/resbos2/buildFit/_deps/yaml-cpp-src/include -I/ustcfs2/yfu/pku_resbos/NewResBos2Test/resbos2/buildFit/_deps/yaml-cpp-src/src  -O3 -DNDEBUG -fPIC   -Wall -Wextra -Wshadow -Weffc++ -Wno-long-long -pedantic -pedantic-errors -std=gnu++11 -o CMakeFiles/yaml-cpp.dir/src/scanscalar.cpp.o -c /ustcfs2/yfu/pku_resbos/NewResBos2Test/resbos2/buildFit/_deps/yaml-cpp-src/src/scanscalar.cpp",
  "file": "/ustcfs2/yfu/pku_resbos/NewResBos2Test/resbos2/buildFit/_deps/yaml-cpp-src/src/scanscalar.cpp"
},
{
  "directory": "/ustcfs2/yfu/pku_resbos/NewResBos2Test/resbos2/buildFit/_deps/yaml-cpp-build",
  "command": "/cvmfs/sft.cern.ch/lcg/releases/gcc/8.3.0-cebb0/x86_64-centos7/bin/g++  -DFITTING -DHAVE_ROOT -DLOGURU_UNSAFE_SIGNAL_HANDLER=0 -DLOGURU_WITH_STREAMS=1 -DROOT6 -DYAML_CPP_NO_CONTRIB -Dyaml_cpp_EXPORTS -I/cvmfs/sft.cern.ch/lcg/releases/LCG_97a/ROOT/v6.20.06/x86_64-centos7-gcc8-opt/include -I/ustcfs2/yfu/pku_resbos/NewResBos2Test/resbos2/buildFit/_deps/yaml-cpp-src/include -I/ustcfs2/yfu/pku_resbos/NewResBos2Test/resbos2/buildFit/_deps/yaml-cpp-src/src  -O3 -DNDEBUG -fPIC   -Wall -Wextra -Wshadow -Weffc++ -Wno-long-long -pedantic -pedantic-errors -std=gnu++11 -o CMakeFiles/yaml-cpp.dir/src/scantag.cpp.o -c /ustcfs2/yfu/pku_resbos/NewResBos2Test/resbos2/buildFit/_deps/yaml-cpp-src/src/scantag.cpp",
  "file": "/ustcfs2/yfu/pku_resbos/NewResBos2Test/resbos2/buildFit/_deps/yaml-cpp-src/src/scantag.cpp"
},
{
  "directory": "/ustcfs2/yfu/pku_resbos/NewResBos2Test/resbos2/buildFit/_deps/yaml-cpp-build",
  "command": "/cvmfs/sft.cern.ch/lcg/releases/gcc/8.3.0-cebb0/x86_64-centos7/bin/g++  -DFITTING -DHAVE_ROOT -DLOGURU_UNSAFE_SIGNAL_HANDLER=0 -DLOGURU_WITH_STREAMS=1 -DROOT6 -DYAML_CPP_NO_CONTRIB -Dyaml_cpp_EXPORTS -I/cvmfs/sft.cern.ch/lcg/releases/LCG_97a/ROOT/v6.20.06/x86_64-centos7-gcc8-opt/include -I/ustcfs2/yfu/pku_resbos/NewResBos2Test/resbos2/buildFit/_deps/yaml-cpp-src/include -I/ustcfs2/yfu/pku_resbos/NewResBos2Test/resbos2/buildFit/_deps/yaml-cpp-src/src  -O3 -DNDEBUG -fPIC   -Wall -Wextra -Wshadow -Weffc++ -Wno-long-long -pedantic -pedantic-errors -std=gnu++11 -o CMakeFiles/yaml-cpp.dir/src/scantoken.cpp.o -c /ustcfs2/yfu/pku_resbos/NewResBos2Test/resbos2/buildFit/_deps/yaml-cpp-src/src/scantoken.cpp",
  "file": "/ustcfs2/yfu/pku_resbos/NewResBos2Test/resbos2/buildFit/_deps/yaml-cpp-src/src/scantoken.cpp"
},
{
  "directory": "/ustcfs2/yfu/pku_resbos/NewResBos2Test/resbos2/buildFit/_deps/yaml-cpp-build",
  "command": "/cvmfs/sft.cern.ch/lcg/releases/gcc/8.3.0-cebb0/x86_64-centos7/bin/g++  -DFITTING -DHAVE_ROOT -DLOGURU_UNSAFE_SIGNAL_HANDLER=0 -DLOGURU_WITH_STREAMS=1 -DROOT6 -DYAML_CPP_NO_CONTRIB -Dyaml_cpp_EXPORTS -I/cvmfs/sft.cern.ch/lcg/releases/LCG_97a/ROOT/v6.20.06/x86_64-centos7-gcc8-opt/include -I/ustcfs2/yfu/pku_resbos/NewResBos2Test/resbos2/buildFit/_deps/yaml-cpp-src/include -I/ustcfs2/yfu/pku_resbos/NewResBos2Test/resbos2/buildFit/_deps/yaml-cpp-src/src  -O3 -DNDEBUG -fPIC   -Wall -Wextra -Wshadow -Weffc++ -Wno-long-long -pedantic -pedantic-errors -std=gnu++11 -o CMakeFiles/yaml-cpp.dir/src/simplekey.cpp.o -c /ustcfs2/yfu/pku_resbos/NewResBos2Test/resbos2/buildFit/_deps/yaml-cpp-src/src/simplekey.cpp",
  "file": "/ustcfs2/yfu/pku_resbos/NewResBos2Test/resbos2/buildFit/_deps/yaml-cpp-src/src/simplekey.cpp"
},
{
  "directory": "/ustcfs2/yfu/pku_resbos/NewResBos2Test/resbos2/buildFit/_deps/yaml-cpp-build",
  "command": "/cvmfs/sft.cern.ch/lcg/releases/gcc/8.3.0-cebb0/x86_64-centos7/bin/g++  -DFITTING -DHAVE_ROOT -DLOGURU_UNSAFE_SIGNAL_HANDLER=0 -DLOGURU_WITH_STREAMS=1 -DROOT6 -DYAML_CPP_NO_CONTRIB -Dyaml_cpp_EXPORTS -I/cvmfs/sft.cern.ch/lcg/releases/LCG_97a/ROOT/v6.20.06/x86_64-centos7-gcc8-opt/include -I/ustcfs2/yfu/pku_resbos/NewResBos2Test/resbos2/buildFit/_deps/yaml-cpp-src/include -I/ustcfs2/yfu/pku_resbos/NewResBos2Test/resbos2/buildFit/_deps/yaml-cpp-src/src  -O3 -DNDEBUG -fPIC   -Wall -Wextra -Wshadow -Weffc++ -Wno-long-long -pedantic -pedantic-errors -std=gnu++11 -o CMakeFiles/yaml-cpp.dir/src/singledocparser.cpp.o -c /ustcfs2/yfu/pku_resbos/NewResBos2Test/resbos2/buildFit/_deps/yaml-cpp-src/src/singledocparser.cpp",
  "file": "/ustcfs2/yfu/pku_resbos/NewResBos2Test/resbos2/buildFit/_deps/yaml-cpp-src/src/singledocparser.cpp"
},
{
  "directory": "/ustcfs2/yfu/pku_resbos/NewResBos2Test/resbos2/buildFit/_deps/yaml-cpp-build",
  "command": "/cvmfs/sft.cern.ch/lcg/releases/gcc/8.3.0-cebb0/x86_64-centos7/bin/g++  -DFITTING -DHAVE_ROOT -DLOGURU_UNSAFE_SIGNAL_HANDLER=0 -DLOGURU_WITH_STREAMS=1 -DROOT6 -DYAML_CPP_NO_CONTRIB -Dyaml_cpp_EXPORTS -I/cvmfs/sft.cern.ch/lcg/releases/LCG_97a/ROOT/v6.20.06/x86_64-centos7-gcc8-opt/include -I/ustcfs2/yfu/pku_resbos/NewResBos2Test/resbos2/buildFit/_deps/yaml-cpp-src/include -I/ustcfs2/yfu/pku_resbos/NewResBos2Test/resbos2/buildFit/_deps/yaml-cpp-src/src  -O3 -DNDEBUG -fPIC   -Wall -Wextra -Wshadow -Weffc++ -Wno-long-long -pedantic -pedantic-errors -std=gnu++11 -o CMakeFiles/yaml-cpp.dir/src/stream.cpp.o -c /ustcfs2/yfu/pku_resbos/NewResBos2Test/resbos2/buildFit/_deps/yaml-cpp-src/src/stream.cpp",
  "file": "/ustcfs2/yfu/pku_resbos/NewResBos2Test/resbos2/buildFit/_deps/yaml-cpp-src/src/stream.cpp"
},
{
  "directory": "/ustcfs2/yfu/pku_resbos/NewResBos2Test/resbos2/buildFit/_deps/yaml-cpp-build",
  "command": "/cvmfs/sft.cern.ch/lcg/releases/gcc/8.3.0-cebb0/x86_64-centos7/bin/g++  -DFITTING -DHAVE_ROOT -DLOGURU_UNSAFE_SIGNAL_HANDLER=0 -DLOGURU_WITH_STREAMS=1 -DROOT6 -DYAML_CPP_NO_CONTRIB -Dyaml_cpp_EXPORTS -I/cvmfs/sft.cern.ch/lcg/releases/LCG_97a/ROOT/v6.20.06/x86_64-centos7-gcc8-opt/include -I/ustcfs2/yfu/pku_resbos/NewResBos2Test/resbos2/buildFit/_deps/yaml-cpp-src/include -I/ustcfs2/yfu/pku_resbos/NewResBos2Test/resbos2/buildFit/_deps/yaml-cpp-src/src  -O3 -DNDEBUG -fPIC   -Wall -Wextra -Wshadow -Weffc++ -Wno-long-long -pedantic -pedantic-errors -std=gnu++11 -o CMakeFiles/yaml-cpp.dir/src/tag.cpp.o -c /ustcfs2/yfu/pku_resbos/NewResBos2Test/resbos2/buildFit/_deps/yaml-cpp-src/src/tag.cpp",
  "file": "/ustcfs2/yfu/pku_resbos/NewResBos2Test/resbos2/buildFit/_deps/yaml-cpp-src/src/tag.cpp"
},
{
  "directory": "/ustcfs2/yfu/pku_resbos/NewResBos2Test/resbos2/buildFit/_deps/extern_gtest-build/googlemock",
  "command": "/cvmfs/sft.cern.ch/lcg/releases/gcc/8.3.0-cebb0/x86_64-centos7/bin/g++  -DFITTING -DGTEST_CREATE_SHARED_LIBRARY=1 -DHAVE_ROOT -DLOGURU_UNSAFE_SIGNAL_HANDLER=0 -DLOGURU_WITH_STREAMS=1 -DROOT6 -Dgmock_main_EXPORTS -I/cvmfs/sft.cern.ch/lcg/releases/LCG_97a/ROOT/v6.20.06/x86_64-centos7-gcc8-opt/include -isystem /ustcfs2/yfu/pku_resbos/NewResBos2Test/resbos2/buildFit/_deps/extern_gtest-src/googlemock/include -isystem /ustcfs2/yfu/pku_resbos/NewResBos2Test/resbos2/buildFit/_deps/extern_gtest-src/googlemock -isystem /ustcfs2/yfu/pku_resbos/NewResBos2Test/resbos2/buildFit/_deps/extern_gtest-src/googletest/include -isystem /ustcfs2/yfu/pku_resbos/NewResBos2Test/resbos2/buildFit/_deps/extern_gtest-src/googletest  -O3 -DNDEBUG -fPIC   -Wall -Wshadow -Werror -Wno-error=dangling-else -DGTEST_HAS_PTHREAD=1 -fexceptions -Wextra -Wno-unused-parameter -Wno-missing-field-initializers -pthread -std=c++11 -o CMakeFiles/gmock_main.dir/src/gmock_main.cc.o -c /ustcfs2/yfu/pku_resbos/NewResBos2Test/resbos2/buildFit/_deps/extern_gtest-src/googlemock/src/gmock_main.cc",
  "file": "/ustcfs2/yfu/pku_resbos/NewResBos2Test/resbos2/buildFit/_deps/extern_gtest-src/googlemock/src/gmock_main.cc"
},
{
  "directory": "/ustcfs2/yfu/pku_resbos/NewResBos2Test/resbos2/buildFit/_deps/extern_gtest-build/googlemock",
  "command": "/cvmfs/sft.cern.ch/lcg/releases/gcc/8.3.0-cebb0/x86_64-centos7/bin/g++  -DFITTING -DGTEST_CREATE_SHARED_LIBRARY=1 -DHAVE_ROOT -DLOGURU_UNSAFE_SIGNAL_HANDLER=0 -DLOGURU_WITH_STREAMS=1 -DROOT6 -Dgmock_EXPORTS -I/cvmfs/sft.cern.ch/lcg/releases/LCG_97a/ROOT/v6.20.06/x86_64-centos7-gcc8-opt/include -I/ustcfs2/yfu/pku_resbos/NewResBos2Test/resbos2/buildFit/_deps/extern_gtest-src/googlemock/include -I/ustcfs2/yfu/pku_resbos/NewResBos2Test/resbos2/buildFit/_deps/extern_gtest-src/googlemock -isystem /ustcfs2/yfu/pku_resbos/NewResBos2Test/resbos2/buildFit/_deps/extern_gtest-src/googletest/include -isystem /ustcfs2/yfu/pku_resbos/NewResBos2Test/resbos2/buildFit/_deps/extern_gtest-src/googletest  -O3 -DNDEBUG -fPIC   -Wall -Wshadow -Werror -Wno-error=dangling-else -DGTEST_HAS_PTHREAD=1 -fexceptions -Wextra -Wno-unused-parameter -Wno-missing-field-initializers -pthread -std=c++11 -o CMakeFiles/gmock.dir/src/gmock-all.cc.o -c /ustcfs2/yfu/pku_resbos/NewResBos2Test/resbos2/buildFit/_deps/extern_gtest-src/googlemock/src/gmock-all.cc",
  "file": "/ustcfs2/yfu/pku_resbos/NewResBos2Test/resbos2/buildFit/_deps/extern_gtest-src/googlemock/src/gmock-all.cc"
},
{
  "directory": "/ustcfs2/yfu/pku_resbos/NewResBos2Test/resbos2/buildFit/_deps/extern_gtest-build/googletest",
  "command": "/cvmfs/sft.cern.ch/lcg/releases/gcc/8.3.0-cebb0/x86_64-centos7/bin/g++  -DFITTING -DGTEST_CREATE_SHARED_LIBRARY=1 -DHAVE_ROOT -DLOGURU_UNSAFE_SIGNAL_HANDLER=0 -DLOGURU_WITH_STREAMS=1 -DROOT6 -Dgtest_main_EXPORTS -I/cvmfs/sft.cern.ch/lcg/releases/LCG_97a/ROOT/v6.20.06/x86_64-centos7-gcc8-opt/include -isystem /ustcfs2/yfu/pku_resbos/NewResBos2Test/resbos2/buildFit/_deps/extern_gtest-src/googletest/include -isystem /ustcfs2/yfu/pku_resbos/NewResBos2Test/resbos2/buildFit/_deps/extern_gtest-src/googletest  -O3 -DNDEBUG -fPIC   -Wall -Wshadow -Werror -Wno-error=dangling-else -DGTEST_HAS_PTHREAD=1 -fexceptions -Wextra -Wno-unused-parameter -Wno-missing-field-initializers -pthread -std=c++11 -o CMakeFiles/gtest_main.dir/src/gtest_main.cc.o -c /ustcfs2/yfu/pku_resbos/NewResBos2Test/resbos2/buildFit/_deps/extern_gtest-src/googletest/src/gtest_main.cc",
  "file": "/ustcfs2/yfu/pku_resbos/NewResBos2Test/resbos2/buildFit/_deps/extern_gtest-src/googletest/src/gtest_main.cc"
},
{
  "directory": "/ustcfs2/yfu/pku_resbos/NewResBos2Test/resbos2/buildFit/_deps/extern_gtest-build/googletest",
  "command": "/cvmfs/sft.cern.ch/lcg/releases/gcc/8.3.0-cebb0/x86_64-centos7/bin/g++  -DFITTING -DGTEST_CREATE_SHARED_LIBRARY=1 -DHAVE_ROOT -DLOGURU_UNSAFE_SIGNAL_HANDLER=0 -DLOGURU_WITH_STREAMS=1 -DROOT6 -Dgtest_EXPORTS -I/cvmfs/sft.cern.ch/lcg/releases/LCG_97a/ROOT/v6.20.06/x86_64-centos7-gcc8-opt/include -I/ustcfs2/yfu/pku_resbos/NewResBos2Test/resbos2/buildFit/_deps/extern_gtest-src/googletest/include -I/ustcfs2/yfu/pku_resbos/NewResBos2Test/resbos2/buildFit/_deps/extern_gtest-src/googletest  -O3 -DNDEBUG -fPIC   -Wall -Wshadow -Werror -Wno-error=dangling-else -DGTEST_HAS_PTHREAD=1 -fexceptions -Wextra -Wno-unused-parameter -Wno-missing-field-initializers -pthread -std=c++11 -o CMakeFiles/gtest.dir/src/gtest-all.cc.o -c /ustcfs2/yfu/pku_resbos/NewResBos2Test/resbos2/buildFit/_deps/extern_gtest-src/googletest/src/gtest-all.cc",
  "file": "/ustcfs2/yfu/pku_resbos/NewResBos2Test/resbos2/buildFit/_deps/extern_gtest-src/googletest/src/gtest-all.cc"
},
{
  "directory": "/ustcfs2/yfu/pku_resbos/NewResBos2Test/resbos2/buildFit/src",
  "command": "/cvmfs/sft.cern.ch/lcg/releases/gcc/8.3.0-cebb0/x86_64-centos7/bin/g++  -DFITTING -DFMT_LOCALE -DFMT_SHARED -DHAVE_ROOT -DLOGURU_UNSAFE_SIGNAL_HANDLER=0 -DLOGURU_WITH_STREAMS=1 -DMCFMInterface_EXPORTS -DROOT6 -I/cvmfs/sft.cern.ch/lcg/releases/LCG_97a/ROOT/v6.20.06/x86_64-centos7-gcc8-opt/include -I/ustcfs2/yfu/pku_resbos/NewResBos2Test/resbos2/include -I/ustcfs2/yfu/pku_resbos/NewResBos2Test/resbos2/external -I/ustcfs2/yfu/pku_resbos/NewResBos2Test/resbos2/buildFit/_deps/fmt-src/include -isystem /home/yfu/LHAPDF/include -isystem /home/yfu/HOPPET/include  -O3 -DNDEBUG -fPIC   -ftemplate-depth=1600 -pthread -std=gnu++17 -o CMakeFiles/MCFMInterface.dir/MCFMInterface.cc.o -c /ustcfs2/yfu/pku_resbos/NewResBos2Test/resbos2/src/MCFMInterface.cc",
  "file": "/ustcfs2/yfu/pku_resbos/NewResBos2Test/resbos2/src/MCFMInterface.cc"
},
{
  "directory": "/ustcfs2/yfu/pku_resbos/NewResBos2Test/resbos2/buildFit/src",
  "command": "/cvmfs/sft.cern.ch/lcg/releases/gcc/8.3.0-cebb0/x86_64-centos7/bin/g++  -DFITTING -DFMT_LOCALE -DFMT_SHARED -DHAVE_ROOT -DLOGURU_UNSAFE_SIGNAL_HANDLER=0 -DLOGURU_WITH_STREAMS=1 -DROOT6 -I/cvmfs/sft.cern.ch/lcg/releases/LCG_97a/ROOT/v6.20.06/x86_64-centos7-gcc8-opt/include -I/ustcfs2/yfu/pku_resbos/NewResBos2Test/resbos2/include -I/ustcfs2/yfu/pku_resbos/NewResBos2Test/resbos2/external -I/ustcfs2/yfu/pku_resbos/NewResBos2Test/resbos2/buildFit/_deps/fmt-src/include -isystem /home/yfu/LHAPDF/include -isystem /home/yfu/HOPPET/include  -O3 -DNDEBUG   -ftemplate-depth=1600 -pthread -std=gnu++17 -o CMakeFiles/resbos.dir/main.cc.o -c /ustcfs2/yfu/pku_resbos/NewResBos2Test/resbos2/src/main.cc",
  "file": "/ustcfs2/yfu/pku_resbos/NewResBos2Test/resbos2/src/main.cc"
},
{
  "directory": "/ustcfs2/yfu/pku_resbos/NewResBos2Test/resbos2/buildFit/src",
  "command": "/cvmfs/sft.cern.ch/lcg/releases/gcc/8.3.0-cebb0/x86_64-centos7/bin/g++  -DFITTING -DFMT_LOCALE -DFMT_SHARED -DHAVE_ROOT -DLOGURU_UNSAFE_SIGNAL_HANDLER=0 -DLOGURU_WITH_STREAMS=1 -DROOT6 -DResbos_EXPORTS -I/cvmfs/sft.cern.ch/lcg/releases/LCG_97a/ROOT/v6.20.06/x86_64-centos7-gcc8-opt/include -I/ustcfs2/yfu/pku_resbos/NewResBos2Test/resbos2/include -I/ustcfs2/yfu/pku_resbos/NewResBos2Test/resbos2/external -I/ustcfs2/yfu/pku_resbos/NewResBos2Test/resbos2/buildFit/_deps/fmt-src/include -isystem /home/yfu/LHAPDF/include -isystem /home/yfu/HOPPET/include  -O3 -DNDEBUG -fPIC   -ftemplate-depth=1600 -pthread -std=gnu++17 -o CMakeFiles/Resbos.dir/ResBos.cc.o -c /ustcfs2/yfu/pku_resbos/NewResBos2Test/resbos2/src/ResBos.cc",
  "file": "/ustcfs2/yfu/pku_resbos/NewResBos2Test/resbos2/src/ResBos.cc"
},
{
  "directory": "/ustcfs2/yfu/pku_resbos/NewResBos2Test/resbos2/buildFit/src/Utilities",
  "command": "/cvmfs/sft.cern.ch/lcg/releases/gcc/8.3.0-cebb0/x86_64-centos7/bin/g++  -DFITTING -DFMT_LOCALE -DFMT_SHARED -DHAVE_ROOT -DLOGURU_UNSAFE_SIGNAL_HANDLER=0 -DLOGURU_WITH_STREAMS=1 -DROOT6 -DResbosUtilities_EXPORTS -I/cvmfs/sft.cern.ch/lcg/releases/LCG_97a/ROOT/v6.20.06/x86_64-centos7-gcc8-opt/include -I/ustcfs2/yfu/pku_resbos/NewResBos2Test/resbos2/include -I/ustcfs2/yfu/pku_resbos/NewResBos2Test/resbos2/external -I/ustcfs2/yfu/pku_resbos/NewResBos2Test/resbos2/buildFit/_deps/fmt-src/include  -O3 -DNDEBUG -fPIC   -ftemplate-depth=1600 -pthread -std=gnu++17 -o CMakeFiles/ResbosUtilities.dir/AdaptiveIntegrator.cc.o -c /ustcfs2/yfu/pku_resbos/NewResBos2Test/resbos2/src/Utilities/AdaptiveIntegrator.cc",
  "file": "/ustcfs2/yfu/pku_resbos/NewResBos2Test/resbos2/src/Utilities/AdaptiveIntegrator.cc"
},
{
  "directory": "/ustcfs2/yfu/pku_resbos/NewResBos2Test/resbos2/buildFit/src/Utilities",
  "command": "/cvmfs/sft.cern.ch/lcg/releases/gcc/8.3.0-cebb0/x86_64-centos7/bin/g++  -DFITTING -DFMT_LOCALE -DFMT_SHARED -DHAVE_ROOT -DLOGURU_UNSAFE_SIGNAL_HANDLER=0 -DLOGURU_WITH_STREAMS=1 -DROOT6 -DResbosUtilities_EXPORTS -I/cvmfs/sft.cern.ch/lcg/releases/LCG_97a/ROOT/v6.20.06/x86_64-centos7-gcc8-opt/include -I/ustcfs2/yfu/pku_resbos/NewResBos2Test/resbos2/include -I/ustcfs2/yfu/pku_resbos/NewResBos2Test/resbos2/external -I/ustcfs2/yfu/pku_resbos/NewResBos2Test/resbos2/buildFit/_deps/fmt-src/include  -O3 -DNDEBUG -fPIC   -ftemplate-depth=1600 -pthread -std=gnu++17 -o CMakeFiles/ResbosUtilities.dir/AdaptiveMap.cc.o -c /ustcfs2/yfu/pku_resbos/NewResBos2Test/resbos2/src/Utilities/AdaptiveMap.cc",
  "file": "/ustcfs2/yfu/pku_resbos/NewResBos2Test/resbos2/src/Utilities/AdaptiveMap.cc"
},
{
  "directory": "/ustcfs2/yfu/pku_resbos/NewResBos2Test/resbos2/buildFit/src/Utilities",
  "command": "/cvmfs/sft.cern.ch/lcg/releases/gcc/8.3.0-cebb0/x86_64-centos7/bin/g++  -DFITTING -DFMT_LOCALE -DFMT_SHARED -DHAVE_ROOT -DLOGURU_UNSAFE_SIGNAL_HANDLER=0 -DLOGURU_WITH_STREAMS=1 -DROOT6 -DResbosUtilities_EXPORTS -I/cvmfs/sft.cern.ch/lcg/releases/LCG_97a/ROOT/v6.20.06/x86_64-centos7-gcc8-opt/include -I/ustcfs2/yfu/pku_resbos/NewResBos2Test/resbos2/include -I/ustcfs2/yfu/pku_resbos/NewResBos2Test/resbos2/external -I/ustcfs2/yfu/pku_resbos/NewResBos2Test/resbos2/buildFit/_deps/fmt-src/include  -O3 -DNDEBUG -fPIC   -ftemplate-depth=1600 -pthread -std=gnu++17 -o CMakeFiles/ResbosUtilities.dir/Adzint.cc.o -c /ustcfs2/yfu/pku_resbos/NewResBos2Test/resbos2/src/Utilities/Adzint.cc",
  "file": "/ustcfs2/yfu/pku_resbos/NewResBos2Test/resbos2/src/Utilities/Adzint.cc"
},
{
  "directory": "/ustcfs2/yfu/pku_resbos/NewResBos2Test/resbos2/buildFit/src/Utilities",
  "command": "/cvmfs/sft.cern.ch/lcg/releases/gcc/8.3.0-cebb0/x86_64-centos7/bin/g++  -DFITTING -DFMT_LOCALE -DFMT_SHARED -DHAVE_ROOT -DLOGURU_UNSAFE_SIGNAL_HANDLER=0 -DLOGURU_WITH_STREAMS=1 -DROOT6 -DResbosUtilities_EXPORTS -I/cvmfs/sft.cern.ch/lcg/releases/LCG_97a/ROOT/v6.20.06/x86_64-centos7-gcc8-opt/include -I/ustcfs2/yfu/pku_resbos/NewResBos2Test/resbos2/include -I/ustcfs2/yfu/pku_resbos/NewResBos2Test/resbos2/external -I/ustcfs2/yfu/pku_resbos/NewResBos2Test/resbos2/buildFit/_deps/fmt-src/include  -O3 -DNDEBUG -fPIC   -ftemplate-depth=1600 -pthread -std=gnu++17 -o CMakeFiles/ResbosUtilities.dir/BaseIntegrator.cc.o -c /ustcfs2/yfu/pku_resbos/NewResBos2Test/resbos2/src/Utilities/BaseIntegrator.cc",
  "file": "/ustcfs2/yfu/pku_resbos/NewResBos2Test/resbos2/src/Utilities/BaseIntegrator.cc"
},
{
  "directory": "/ustcfs2/yfu/pku_resbos/NewResBos2Test/resbos2/buildFit/src/Utilities",
  "command": "/cvmfs/sft.cern.ch/lcg/releases/gcc/8.3.0-cebb0/x86_64-centos7/bin/g++  -DFITTING -DFMT_LOCALE -DFMT_SHARED -DHAVE_ROOT -DLOGURU_UNSAFE_SIGNAL_HANDLER=0 -DLOGURU_WITH_STREAMS=1 -DROOT6 -DResbosUtilities_EXPORTS -I/cvmfs/sft.cern.ch/lcg/releases/LCG_97a/ROOT/v6.20.06/x86_64-centos7-gcc8-opt/include -I/ustcfs2/yfu/pku_resbos/NewResBos2Test/resbos2/include -I/ustcfs2/yfu/pku_resbos/NewResBos2Test/resbos2/external -I/ustcfs2/yfu/pku_resbos/NewResBos2Test/resbos2/buildFit/_deps/fmt-src/include  -O3 -DNDEBUG -fPIC   -ftemplate-depth=1600 -pthread -std=gnu++17 -o CMakeFiles/ResbosUtilities.dir/Brent.cc.o -c /ustcfs2/yfu/pku_resbos/NewResBos2Test/resbos2/src/Utilities/Brent.cc",
  "file": "/ustcfs2/yfu/pku_resbos/NewResBos2Test/resbos2/src/Utilities/Brent.cc"
},
{
  "directory": "/ustcfs2/yfu/pku_resbos/NewResBos2Test/resbos2/buildFit/src/Utilities",
  "command": "/cvmfs/sft.cern.ch/lcg/releases/gcc/8.3.0-cebb0/x86_64-centos7/bin/g++  -DFITTING -DFMT_LOCALE -DFMT_SHARED -DHAVE_ROOT -DLOGURU_UNSAFE_SIGNAL_HANDLER=0 -DLOGURU_WITH_STREAMS=1 -DROOT6 -DResbosUtilities_EXPORTS -I/cvmfs/sft.cern.ch/lcg/releases/LCG_97a/ROOT/v6.20.06/x86_64-centos7-gcc8-opt/include -I/ustcfs2/yfu/pku_resbos/NewResBos2Test/resbos2/include -I/ustcfs2/yfu/pku_resbos/NewResBos2Test/resbos2/external -I/ustcfs2/yfu/pku_resbos/NewResBos2Test/resbos2/buildFit/_deps/fmt-src/include  -O3 -DNDEBUG -fPIC   -ftemplate-depth=1600 -pthread -std=gnu++17 -o CMakeFiles/ResbosUtilities.dir/ConfigParser.cc.o -c /ustcfs2/yfu/pku_resbos/NewResBos2Test/resbos2/src/Utilities/ConfigParser.cc",
  "file": "/ustcfs2/yfu/pku_resbos/NewResBos2Test/resbos2/src/Utilities/ConfigParser.cc"
},
{
  "directory": "/ustcfs2/yfu/pku_resbos/NewResBos2Test/resbos2/buildFit/src/Utilities",
  "command": "/cvmfs/sft.cern.ch/lcg/releases/gcc/8.3.0-cebb0/x86_64-centos7/bin/g++  -DFITTING -DFMT_LOCALE -DFMT_SHARED -DHAVE_ROOT -DLOGURU_UNSAFE_SIGNAL_HANDLER=0 -DLOGURU_WITH_STREAMS=1 -DROOT6 -DResbosUtilities_EXPORTS -I/cvmfs/sft.cern.ch/lcg/releases/LCG_97a/ROOT/v6.20.06/x86_64-centos7-gcc8-opt/include -I/ustcfs2/yfu/pku_resbos/NewResBos2Test/resbos2/include -I/ustcfs2/yfu/pku_resbos/NewResBos2Test/resbos2/external -I/ustcfs2/yfu/pku_resbos/NewResBos2Test/resbos2/buildFit/_deps/fmt-src/include  -O3 -DNDEBUG -fPIC   -ftemplate-depth=1600 -pthread -std=gnu++17 -o CMakeFiles/ResbosUtilities.dir/Cuts.cc.o -c /ustcfs2/yfu/pku_resbos/NewResBos2Test/resbos2/src/Utilities/Cuts.cc",
  "file": "/ustcfs2/yfu/pku_resbos/NewResBos2Test/resbos2/src/Utilities/Cuts.cc"
},
{
  "directory": "/ustcfs2/yfu/pku_resbos/NewResBos2Test/resbos2/buildFit/src/Utilities",
  "command": "/cvmfs/sft.cern.ch/lcg/releases/gcc/8.3.0-cebb0/x86_64-centos7/bin/g++  -DFITTING -DFMT_LOCALE -DFMT_SHARED -DHAVE_ROOT -DLOGURU_UNSAFE_SIGNAL_HANDLER=0 -DLOGURU_WITH_STREAMS=1 -DROOT6 -DResbosUtilities_EXPORTS -I/cvmfs/sft.cern.ch/lcg/releases/LCG_97a/ROOT/v6.20.06/x86_64-centos7-gcc8-opt/include -I/ustcfs2/yfu/pku_resbos/NewResBos2Test/resbos2/include -I/ustcfs2/yfu/pku_resbos/NewResBos2Test/resbos2/external -I/ustcfs2/yfu/pku_resbos/NewResBos2Test/resbos2/buildFit/_deps/fmt-src/include  -O3 -DNDEBUG -fPIC   -ftemplate-depth=1600 -pthread -std=gnu++17 -o CMakeFiles/ResbosUtilities.dir/DoubleExponential.cc.o -c /ustcfs2/yfu/pku_resbos/NewResBos2Test/resbos2/src/Utilities/DoubleExponential.cc",
  "file": "/ustcfs2/yfu/pku_resbos/NewResBos2Test/resbos2/src/Utilities/DoubleExponential.cc"
},
{
  "directory": "/ustcfs2/yfu/pku_resbos/NewResBos2Test/resbos2/buildFit/src/Utilities",
  "command": "/cvmfs/sft.cern.ch/lcg/releases/gcc/8.3.0-cebb0/x86_64-centos7/bin/g++  -DFITTING -DFMT_LOCALE -DFMT_SHARED -DHAVE_ROOT -DLOGURU_UNSAFE_SIGNAL_HANDLER=0 -DLOGURU_WITH_STREAMS=1 -DROOT6 -DResbosUtilities_EXPORTS -I/cvmfs/sft.cern.ch/lcg/releases/LCG_97a/ROOT/v6.20.06/x86_64-centos7-gcc8-opt/include -I/ustcfs2/yfu/pku_resbos/NewResBos2Test/resbos2/include -I/ustcfs2/yfu/pku_resbos/NewResBos2Test/resbos2/external -I/ustcfs2/yfu/pku_resbos/NewResBos2Test/resbos2/buildFit/_deps/fmt-src/include  -O3 -DNDEBUG -fPIC   -ftemplate-depth=1600 -pthread -std=gnu++17 -o CMakeFiles/ResbosUtilities.dir/Electroweak.cc.o -c /ustcfs2/yfu/pku_resbos/NewResBos2Test/resbos2/src/Utilities/Electroweak.cc",
  "file": "/ustcfs2/yfu/pku_resbos/NewResBos2Test/resbos2/src/Utilities/Electroweak.cc"
},
{
  "directory": "/ustcfs2/yfu/pku_resbos/NewResBos2Test/resbos2/buildFit/src/Utilities",
  "command": "/cvmfs/sft.cern.ch/lcg/releases/gcc/8.3.0-cebb0/x86_64-centos7/bin/g++  -DFITTING -DFMT_LOCALE -DFMT_SHARED -DHAVE_ROOT -DLOGURU_UNSAFE_SIGNAL_HANDLER=0 -DLOGURU_WITH_STREAMS=1 -DROOT6 -DResbosUtilities_EXPORTS -I/cvmfs/sft.cern.ch/lcg/releases/LCG_97a/ROOT/v6.20.06/x86_64-centos7-gcc8-opt/include -I/ustcfs2/yfu/pku_resbos/NewResBos2Test/resbos2/include -I/ustcfs2/yfu/pku_resbos/NewResBos2Test/resbos2/external -I/ustcfs2/yfu/pku_resbos/NewResBos2Test/resbos2/buildFit/_deps/fmt-src/include  -O3 -DNDEBUG -fPIC   -ftemplate-depth=1600 -pthread -std=gnu++17 -o CMakeFiles/ResbosUtilities.dir/Event.cc.o -c /ustcfs2/yfu/pku_resbos/NewResBos2Test/resbos2/src/Utilities/Event.cc",
  "file": "/ustcfs2/yfu/pku_resbos/NewResBos2Test/resbos2/src/Utilities/Event.cc"
},
{
  "directory": "/ustcfs2/yfu/pku_resbos/NewResBos2Test/resbos2/buildFit/src/Utilities",
  "command": "/cvmfs/sft.cern.ch/lcg/releases/gcc/8.3.0-cebb0/x86_64-centos7/bin/g++  -DFITTING -DFMT_LOCALE -DFMT_SHARED -DHAVE_ROOT -DLOGURU_UNSAFE_SIGNAL_HANDLER=0 -DLOGURU_WITH_STREAMS=1 -DROOT6 -DResbosUtilities_EXPORTS -I/cvmfs/sft.cern.ch/lcg/releases/LCG_97a/ROOT/v6.20.06/x86_64-centos7-gcc8-opt/include -I/ustcfs2/yfu/pku_resbos/NewResBos2Test/resbos2/include -I/ustcfs2/yfu/pku_resbos/NewResBos2Test/resbos2/external -I/ustcfs2/yfu/pku_resbos/NewResBos2Test/resbos2/buildFit/_deps/fmt-src/include  -O3 -DNDEBUG -fPIC   -ftemplate-depth=1600 -pthread -std=gnu++17 -o CMakeFiles/ResbosUtilities.dir/FourVector.cc.o -c /ustcfs2/yfu/pku_resbos/NewResBos2Test/resbos2/src/Utilities/FourVector.cc",
  "file": "/ustcfs2/yfu/pku_resbos/NewResBos2Test/resbos2/src/Utilities/FourVector.cc"
},
{
  "directory": "/ustcfs2/yfu/pku_resbos/NewResBos2Test/resbos2/buildFit/src/Utilities",
  "command": "/cvmfs/sft.cern.ch/lcg/releases/gcc/8.3.0-cebb0/x86_64-centos7/bin/g++  -DFITTING -DFMT_LOCALE -DFMT_SHARED -DHAVE_ROOT -DLOGURU_UNSAFE_SIGNAL_HANDLER=0 -DLOGURU_WITH_STREAMS=1 -DROOT6 -DResbosUtilities_EXPORTS -I/cvmfs/sft.cern.ch/lcg/releases/LCG_97a/ROOT/v6.20.06/x86_64-centos7-gcc8-opt/include -I/ustcfs2/yfu/pku_resbos/NewResBos2Test/resbos2/include -I/ustcfs2/yfu/pku_resbos/NewResBos2Test/resbos2/external -I/ustcfs2/yfu/pku_resbos/NewResBos2Test/resbos2/buildFit/_deps/fmt-src/include  -O3 -DNDEBUG -fPIC   -ftemplate-depth=1600 -pthread -std=gnu++17 -o CMakeFiles/ResbosUtilities.dir/GaussKronrod.cc.o -c /ustcfs2/yfu/pku_resbos/NewResBos2Test/resbos2/src/Utilities/GaussKronrod.cc",
  "file": "/ustcfs2/yfu/pku_resbos/NewResBos2Test/resbos2/src/Utilities/GaussKronrod.cc"
},
{
  "directory": "/ustcfs2/yfu/pku_resbos/NewResBos2Test/resbos2/buildFit/src/Utilities",
  "command": "/cvmfs/sft.cern.ch/lcg/releases/gcc/8.3.0-cebb0/x86_64-centos7/bin/g++  -DFITTING -DFMT_LOCALE -DFMT_SHARED -DHAVE_ROOT -DLOGURU_UNSAFE_SIGNAL_HANDLER=0 -DLOGURU_WITH_STREAMS=1 -DROOT6 -DResbosUtilities_EXPORTS -I/cvmfs/sft.cern.ch/lcg/releases/LCG_97a/ROOT/v6.20.06/x86_64-centos7-gcc8-opt/include -I/ustcfs2/yfu/pku_resbos/NewResBos2Test/resbos2/include -I/ustcfs2/yfu/pku_resbos/NewResBos2Test/resbos2/external -I/ustcfs2/yfu/pku_resbos/NewResBos2Test/resbos2/buildFit/_deps/fmt-src/include  -O3 -DNDEBUG -fPIC   -ftemplate-depth=1600 -pthread -std=gnu++17 -o CMakeFiles/ResbosUtilities.dir/Grid1D.cc.o -c /ustcfs2/yfu/pku_resbos/NewResBos2Test/resbos2/src/Utilities/Grid1D.cc",
  "file": "/ustcfs2/yfu/pku_resbos/NewResBos2Test/resbos2/src/Utilities/Grid1D.cc"
},
{
  "directory": "/ustcfs2/yfu/pku_resbos/NewResBos2Test/resbos2/buildFit/src/Utilities",
  "command": "/cvmfs/sft.cern.ch/lcg/releases/gcc/8.3.0-cebb0/x86_64-centos7/bin/g++  -DFITTING -DFMT_LOCALE -DFMT_SHARED -DHAVE_ROOT -DLOGURU_UNSAFE_SIGNAL_HANDLER=0 -DLOGURU_WITH_STREAMS=1 -DROOT6 -DResbosUtilities_EXPORTS -I/cvmfs/sft.cern.ch/lcg/releases/LCG_97a/ROOT/v6.20.06/x86_64-centos7-gcc8-opt/include -I/ustcfs2/yfu/pku_resbos/NewResBos2Test/resbos2/include -I/ustcfs2/yfu/pku_resbos/NewResBos2Test/resbos2/external -I/ustcfs2/yfu/pku_resbos/NewResBos2Test/resbos2/buildFit/_deps/fmt-src/include  -O3 -DNDEBUG -fPIC   -ftemplate-depth=1600 -pthread -std=gnu++17 -o CMakeFiles/ResbosUtilities.dir/Grid2D.cc.o -c /ustcfs2/yfu/pku_resbos/NewResBos2Test/resbos2/src/Utilities/Grid2D.cc",
  "file": "/ustcfs2/yfu/pku_resbos/NewResBos2Test/resbos2/src/Utilities/Grid2D.cc"
},
{
  "directory": "/ustcfs2/yfu/pku_resbos/NewResBos2Test/resbos2/buildFit/src/Utilities",
  "command": "/cvmfs/sft.cern.ch/lcg/releases/gcc/8.3.0-cebb0/x86_64-centos7/bin/g++  -DFITTING -DFMT_LOCALE -DFMT_SHARED -DHAVE_ROOT -DLOGURU_UNSAFE_SIGNAL_HANDLER=0 -DLOGURU_WITH_STREAMS=1 -DROOT6 -DResbosUtilities_EXPORTS -I/cvmfs/sft.cern.ch/lcg/releases/LCG_97a/ROOT/v6.20.06/x86_64-centos7-gcc8-opt/include -I/ustcfs2/yfu/pku_resbos/NewResBos2Test/resbos2/include -I/ustcfs2/yfu/pku_resbos/NewResBos2Test/resbos2/external -I/ustcfs2/yfu/pku_resbos/NewResBos2Test/resbos2/buildFit/_deps/fmt-src/include  -O3 -DNDEBUG -fPIC   -ftemplate-depth=1600 -pthread -std=gnu++17 -o CMakeFiles/ResbosUtilities.dir/Grid3D.cc.o -c /ustcfs2/yfu/pku_resbos/NewResBos2Test/resbos2/src/Utilities/Grid3D.cc",
  "file": "/ustcfs2/yfu/pku_resbos/NewResBos2Test/resbos2/src/Utilities/Grid3D.cc"
},
{
  "directory": "/ustcfs2/yfu/pku_resbos/NewResBos2Test/resbos2/buildFit/src/Utilities",
  "command": "/cvmfs/sft.cern.ch/lcg/releases/gcc/8.3.0-cebb0/x86_64-centos7/bin/g++  -DFITTING -DFMT_LOCALE -DFMT_SHARED -DHAVE_ROOT -DLOGURU_UNSAFE_SIGNAL_HANDLER=0 -DLOGURU_WITH_STREAMS=1 -DROOT6 -DResbosUtilities_EXPORTS -I/cvmfs/sft.cern.ch/lcg/releases/LCG_97a/ROOT/v6.20.06/x86_64-centos7-gcc8-opt/include -I/ustcfs2/yfu/pku_resbos/NewResBos2Test/resbos2/include -I/ustcfs2/yfu/pku_resbos/NewResBos2Test/resbos2/external -I/ustcfs2/yfu/pku_resbos/NewResBos2Test/resbos2/buildFit/_deps/fmt-src/include  -O3 -DNDEBUG -fPIC   -ftemplate-depth=1600 -pthread -std=gnu++17 -o CMakeFiles/ResbosUtilities.dir/Histogram.cc.o -c /ustcfs2/yfu/pku_resbos/NewResBos2Test/resbos2/src/Utilities/Histogram.cc",
  "file": "/ustcfs2/yfu/pku_resbos/NewResBos2Test/resbos2/src/Utilities/Histogram.cc"
},
{
  "directory": "/ustcfs2/yfu/pku_resbos/NewResBos2Test/resbos2/buildFit/src/Utilities",
  "command": "/cvmfs/sft.cern.ch/lcg/releases/gcc/8.3.0-cebb0/x86_64-centos7/bin/g++  -DFITTING -DFMT_LOCALE -DFMT_SHARED -DHAVE_ROOT -DLOGURU_UNSAFE_SIGNAL_HANDLER=0 -DLOGURU_WITH_STREAMS=1 -DROOT6 -DResbosUtilities_EXPORTS -I/cvmfs/sft.cern.ch/lcg/releases/LCG_97a/ROOT/v6.20.06/x86_64-centos7-gcc8-opt/include -I/ustcfs2/yfu/pku_resbos/NewResBos2Test/resbos2/include -I/ustcfs2/yfu/pku_resbos/NewResBos2Test/resbos2/external -I/ustcfs2/yfu/pku_resbos/NewResBos2Test/resbos2/buildFit/_deps/fmt-src/include  -O3 -DNDEBUG -fPIC   -ftemplate-depth=1600 -pthread -std=gnu++17 -o CMakeFiles/ResbosUtilities.dir/LHEF3.cc.o -c /ustcfs2/yfu/pku_resbos/NewResBos2Test/resbos2/src/Utilities/LHEF3.cc",
  "file": "/ustcfs2/yfu/pku_resbos/NewResBos2Test/resbos2/src/Utilities/LHEF3.cc"
},
{
  "directory": "/ustcfs2/yfu/pku_resbos/NewResBos2Test/resbos2/buildFit/src/Utilities",
  "command": "/cvmfs/sft.cern.ch/lcg/releases/gcc/8.3.0-cebb0/x86_64-centos7/bin/g++  -DFITTING -DFMT_LOCALE -DFMT_SHARED -DHAVE_ROOT -DLOGURU_UNSAFE_SIGNAL_HANDLER=0 -DLOGURU_WITH_STREAMS=1 -DROOT6 -DResbosUtilities_EXPORTS -I/cvmfs/sft.cern.ch/lcg/releases/LCG_97a/ROOT/v6.20.06/x86_64-centos7-gcc8-opt/include -I/ustcfs2/yfu/pku_resbos/NewResBos2Test/resbos2/include -I/ustcfs2/yfu/pku_resbos/NewResBos2Test/resbos2/external -I/ustcfs2/yfu/pku_resbos/NewResBos2Test/resbos2/buildFit/_deps/fmt-src/include  -O3 -DNDEBUG -fPIC   -ftemplate-depth=1600 -pthread -std=gnu++17 -o CMakeFiles/ResbosUtilities.dir/LHEFResBos.cc.o -c /ustcfs2/yfu/pku_resbos/NewResBos2Test/resbos2/src/Utilities/LHEFResBos.cc",
  "file": "/ustcfs2/yfu/pku_resbos/NewResBos2Test/resbos2/src/Utilities/LHEFResBos.cc"
},
{
  "directory": "/ustcfs2/yfu/pku_resbos/NewResBos2Test/resbos2/buildFit/src/Utilities",
  "command": "/cvmfs/sft.cern.ch/lcg/releases/gcc/8.3.0-cebb0/x86_64-centos7/bin/g++  -DFITTING -DFMT_LOCALE -DFMT_SHARED -DHAVE_ROOT -DLOGURU_UNSAFE_SIGNAL_HANDLER=0 -DLOGURU_WITH_STREAMS=1 -DROOT6 -DResbosUtilities_EXPORTS -I/cvmfs/sft.cern.ch/lcg/releases/LCG_97a/ROOT/v6.20.06/x86_64-centos7-gcc8-opt/include -I/ustcfs2/yfu/pku_resbos/NewResBos2Test/resbos2/include -I/ustcfs2/yfu/pku_resbos/NewResBos2Test/resbos2/external -I/ustcfs2/yfu/pku_resbos/NewResBos2Test/resbos2/buildFit/_deps/fmt-src/include  -O3 -DNDEBUG -fPIC   -ftemplate-depth=1600 -pthread -std=gnu++17 -o CMakeFiles/ResbosUtilities.dir/loguru.cpp.o -c /ustcfs2/yfu/pku_resbos/NewResBos2Test/resbos2/src/Utilities/loguru.cpp",
  "file": "/ustcfs2/yfu/pku_resbos/NewResBos2Test/resbos2/src/Utilities/loguru.cpp"
},
{
  "directory": "/ustcfs2/yfu/pku_resbos/NewResBos2Test/resbos2/buildFit/src/Utilities",
  "command": "/cvmfs/sft.cern.ch/lcg/releases/gcc/8.3.0-cebb0/x86_64-centos7/bin/g++  -DFITTING -DFMT_LOCALE -DFMT_SHARED -DHAVE_ROOT -DLOGURU_UNSAFE_SIGNAL_HANDLER=0 -DLOGURU_WITH_STREAMS=1 -DROOT6 -DResbosUtilities_EXPORTS -I/cvmfs/sft.cern.ch/lcg/releases/LCG_97a/ROOT/v6.20.06/x86_64-centos7-gcc8-opt/include -I/ustcfs2/yfu/pku_resbos/NewResBos2Test/resbos2/include -I/ustcfs2/yfu/pku_resbos/NewResBos2Test/resbos2/external -I/ustcfs2/yfu/pku_resbos/NewResBos2Test/resbos2/buildFit/_deps/fmt-src/include  -O3 -DNDEBUG -fPIC   -ftemplate-depth=1600 -pthread -std=gnu++17 -o CMakeFiles/ResbosUtilities.dir/MPI.cc.o -c /ustcfs2/yfu/pku_resbos/NewResBos2Test/resbos2/src/Utilities/MPI.cc",
  "file": "/ustcfs2/yfu/pku_resbos/NewResBos2Test/resbos2/src/Utilities/MPI.cc"
},
{
  "directory": "/ustcfs2/yfu/pku_resbos/NewResBos2Test/resbos2/buildFit/src/Utilities",
  "command": "/cvmfs/sft.cern.ch/lcg/releases/gcc/8.3.0-cebb0/x86_64-centos7/bin/g++  -DFITTING -DFMT_LOCALE -DFMT_SHARED -DHAVE_ROOT -DLOGURU_UNSAFE_SIGNAL_HANDLER=0 -DLOGURU_WITH_STREAMS=1 -DROOT6 -DResbosUtilities_EXPORTS -I/cvmfs/sft.cern.ch/lcg/releases/LCG_97a/ROOT/v6.20.06/x86_64-centos7-gcc8-opt/include -I/ustcfs2/yfu/pku_resbos/NewResBos2Test/resbos2/include -I/ustcfs2/yfu/pku_resbos/NewResBos2Test/resbos2/external -I/ustcfs2/yfu/pku_resbos/NewResBos2Test/resbos2/buildFit/_deps/fmt-src/include  -O3 -DNDEBUG -fPIC   -ftemplate-depth=1600 -pthread -std=gnu++17 -o CMakeFiles/ResbosUtilities.dir/NewtonCotes.cc.o -c /ustcfs2/yfu/pku_resbos/NewResBos2Test/resbos2/src/Utilities/NewtonCotes.cc",
  "file": "/ustcfs2/yfu/pku_resbos/NewResBos2Test/resbos2/src/Utilities/NewtonCotes.cc"
},
{
  "directory": "/ustcfs2/yfu/pku_resbos/NewResBos2Test/resbos2/buildFit/src/Utilities",
  "command": "/cvmfs/sft.cern.ch/lcg/releases/gcc/8.3.0-cebb0/x86_64-centos7/bin/g++  -DFITTING -DFMT_LOCALE -DFMT_SHARED -DHAVE_ROOT -DLOGURU_UNSAFE_SIGNAL_HANDLER=0 -DLOGURU_WITH_STREAMS=1 -DROOT6 -DResbosUtilities_EXPORTS -I/cvmfs/sft.cern.ch/lcg/releases/LCG_97a/ROOT/v6.20.06/x86_64-centos7-gcc8-opt/include -I/ustcfs2/yfu/pku_resbos/NewResBos2Test/resbos2/include -I/ustcfs2/yfu/pku_resbos/NewResBos2Test/resbos2/external -I/ustcfs2/yfu/pku_resbos/NewResBos2Test/resbos2/buildFit/_deps/fmt-src/include  -O3 -DNDEBUG -fPIC   -ftemplate-depth=1600 -pthread -std=gnu++17 -o CMakeFiles/ResbosUtilities.dir/OgataQuad.cc.o -c /ustcfs2/yfu/pku_resbos/NewResBos2Test/resbos2/src/Utilities/OgataQuad.cc",
  "file": "/ustcfs2/yfu/pku_resbos/NewResBos2Test/resbos2/src/Utilities/OgataQuad.cc"
},
{
  "directory": "/ustcfs2/yfu/pku_resbos/NewResBos2Test/resbos2/buildFit/src/Utilities",
  "command": "/cvmfs/sft.cern.ch/lcg/releases/gcc/8.3.0-cebb0/x86_64-centos7/bin/g++  -DFITTING -DFMT_LOCALE -DFMT_SHARED -DHAVE_ROOT -DLOGURU_UNSAFE_SIGNAL_HANDLER=0 -DLOGURU_WITH_STREAMS=1 -DROOT6 -DResbosUtilities_EXPORTS -I/cvmfs/sft.cern.ch/lcg/releases/LCG_97a/ROOT/v6.20.06/x86_64-centos7-gcc8-opt/include -I/ustcfs2/yfu/pku_resbos/NewResBos2Test/resbos2/include -I/ustcfs2/yfu/pku_resbos/NewResBos2Test/resbos2/external -I/ustcfs2/yfu/pku_resbos/NewResBos2Test/resbos2/buildFit/_deps/fmt-src/include  -O3 -DNDEBUG -fPIC   -ftemplate-depth=1600 -pthread -std=gnu++17 -o CMakeFiles/ResbosUtilities.dir/OscIntegrator.cc.o -c /ustcfs2/yfu/pku_resbos/NewResBos2Test/resbos2/src/Utilities/OscIntegrator.cc",
  "file": "/ustcfs2/yfu/pku_resbos/NewResBos2Test/resbos2/src/Utilities/OscIntegrator.cc"
},
{
  "directory": "/ustcfs2/yfu/pku_resbos/NewResBos2Test/resbos2/buildFit/src/Utilities",
  "command": "/cvmfs/sft.cern.ch/lcg/releases/gcc/8.3.0-cebb0/x86_64-centos7/bin/g++  -DFITTING -DFMT_LOCALE -DFMT_SHARED -DHAVE_ROOT -DLOGURU_UNSAFE_SIGNAL_HANDLER=0 -DLOGURU_WITH_STREAMS=1 -DROOT6 -DResbosUtilities_EXPORTS -I/cvmfs/sft.cern.ch/lcg/releases/LCG_97a/ROOT/v6.20.06/x86_64-centos7-gcc8-opt/include -I/ustcfs2/yfu/pku_resbos/NewResBos2Test/resbos2/include -I/ustcfs2/yfu/pku_resbos/NewResBos2Test/resbos2/external -I/ustcfs2/yfu/pku_resbos/NewResBos2Test/resbos2/buildFit/_deps/fmt-src/include  -O3 -DNDEBUG -fPIC   -ftemplate-depth=1600 -pthread -std=gnu++17 -o CMakeFiles/ResbosUtilities.dir/Particle.cc.o -c /ustcfs2/yfu/pku_resbos/NewResBos2Test/resbos2/src/Utilities/Particle.cc",
  "file": "/ustcfs2/yfu/pku_resbos/NewResBos2Test/resbos2/src/Utilities/Particle.cc"
},
{
  "directory": "/ustcfs2/yfu/pku_resbos/NewResBos2Test/resbos2/buildFit/src/Utilities",
  "command": "/cvmfs/sft.cern.ch/lcg/releases/gcc/8.3.0-cebb0/x86_64-centos7/bin/g++  -DFITTING -DFMT_LOCALE -DFMT_SHARED -DHAVE_ROOT -DLOGURU_UNSAFE_SIGNAL_HANDLER=0 -DLOGURU_WITH_STREAMS=1 -DROOT6 -DResbosUtilities_EXPORTS -I/cvmfs/sft.cern.ch/lcg/releases/LCG_97a/ROOT/v6.20.06/x86_64-centos7-gcc8-opt/include -I/ustcfs2/yfu/pku_resbos/NewResBos2Test/resbos2/include -I/ustcfs2/yfu/pku_resbos/NewResBos2Test/resbos2/external -I/ustcfs2/yfu/pku_resbos/NewResBos2Test/resbos2/buildFit/_deps/fmt-src/include  -O3 -DNDEBUG -fPIC   -ftemplate-depth=1600 -pthread -std=gnu++17 -o CMakeFiles/ResbosUtilities.dir/PhaseSpace.cc.o -c /ustcfs2/yfu/pku_resbos/NewResBos2Test/resbos2/src/Utilities/PhaseSpace.cc",
  "file": "/ustcfs2/yfu/pku_resbos/NewResBos2Test/resbos2/src/Utilities/PhaseSpace.cc"
},
{
  "directory": "/ustcfs2/yfu/pku_resbos/NewResBos2Test/resbos2/buildFit/src/Utilities",
  "command": "/cvmfs/sft.cern.ch/lcg/releases/gcc/8.3.0-cebb0/x86_64-centos7/bin/g++  -DFITTING -DFMT_LOCALE -DFMT_SHARED -DHAVE_ROOT -DLOGURU_UNSAFE_SIGNAL_HANDLER=0 -DLOGURU_WITH_STREAMS=1 -DROOT6 -DResbosUtilities_EXPORTS -I/cvmfs/sft.cern.ch/lcg/releases/LCG_97a/ROOT/v6.20.06/x86_64-centos7-gcc8-opt/include -I/ustcfs2/yfu/pku_resbos/NewResBos2Test/resbos2/include -I/ustcfs2/yfu/pku_resbos/NewResBos2Test/resbos2/external -I/ustcfs2/yfu/pku_resbos/NewResBos2Test/resbos2/buildFit/_deps/fmt-src/include  -O3 -DNDEBUG -fPIC   -ftemplate-depth=1600 -pthread -std=gnu++17 -o CMakeFiles/ResbosUtilities.dir/ProgressBar.cc.o -c /ustcfs2/yfu/pku_resbos/NewResBos2Test/resbos2/src/Utilities/ProgressBar.cc",
  "file": "/ustcfs2/yfu/pku_resbos/NewResBos2Test/resbos2/src/Utilities/ProgressBar.cc"
},
{
  "directory": "/ustcfs2/yfu/pku_resbos/NewResBos2Test/resbos2/buildFit/src/Utilities",
  "command": "/cvmfs/sft.cern.ch/lcg/releases/gcc/8.3.0-cebb0/x86_64-centos7/bin/g++  -DFITTING -DFMT_LOCALE -DFMT_SHARED -DHAVE_ROOT -DLOGURU_UNSAFE_SIGNAL_HANDLER=0 -DLOGURU_WITH_STREAMS=1 -DROOT6 -DResbosUtilities_EXPORTS -I/cvmfs/sft.cern.ch/lcg/releases/LCG_97a/ROOT/v6.20.06/x86_64-centos7-gcc8-opt/include -I/ustcfs2/yfu/pku_resbos/NewResBos2Test/resbos2/include -I/ustcfs2/yfu/pku_resbos/NewResBos2Test/resbos2/external -I/ustcfs2/yfu/pku_resbos/NewResBos2Test/resbos2/buildFit/_deps/fmt-src/include  -O3 -DNDEBUG -fPIC   -ftemplate-depth=1600 -pthread -std=gnu++17 -o CMakeFiles/ResbosUtilities.dir/Random.cc.o -c /ustcfs2/yfu/pku_resbos/NewResBos2Test/resbos2/src/Utilities/Random.cc",
  "file": "/ustcfs2/yfu/pku_resbos/NewResBos2Test/resbos2/src/Utilities/Random.cc"
},
{
  "directory": "/ustcfs2/yfu/pku_resbos/NewResBos2Test/resbos2/buildFit/src/Utilities",
  "command": "/cvmfs/sft.cern.ch/lcg/releases/gcc/8.3.0-cebb0/x86_64-centos7/bin/g++  -DFITTING -DFMT_LOCALE -DFMT_SHARED -DHAVE_ROOT -DLOGURU_UNSAFE_SIGNAL_HANDLER=0 -DLOGURU_WITH_STREAMS=1 -DROOT6 -DResbosUtilities_EXPORTS -I/cvmfs/sft.cern.ch/lcg/releases/LCG_97a/ROOT/v6.20.06/x86_64-centos7-gcc8-opt/include -I/ustcfs2/yfu/pku_resbos/NewResBos2Test/resbos2/include -I/ustcfs2/yfu/pku_resbos/NewResBos2Test/resbos2/external -I/ustcfs2/yfu/pku_resbos/NewResBos2Test/resbos2/buildFit/_deps/fmt-src/include  -O3 -DNDEBUG -fPIC   -ftemplate-depth=1600 -pthread -std=gnu++17 -o CMakeFiles/ResbosUtilities.dir/Settings.cc.o -c /ustcfs2/yfu/pku_resbos/NewResBos2Test/resbos2/src/Utilities/Settings.cc",
  "file": "/ustcfs2/yfu/pku_resbos/NewResBos2Test/resbos2/src/Utilities/Settings.cc"
},
{
  "directory": "/ustcfs2/yfu/pku_resbos/NewResBos2Test/resbos2/buildFit/src/Utilities",
  "command": "/cvmfs/sft.cern.ch/lcg/releases/gcc/8.3.0-cebb0/x86_64-centos7/bin/g++  -DFITTING -DFMT_LOCALE -DFMT_SHARED -DHAVE_ROOT -DLOGURU_UNSAFE_SIGNAL_HANDLER=0 -DLOGURU_WITH_STREAMS=1 -DROOT6 -DResbosUtilities_EXPORTS -I/cvmfs/sft.cern.ch/lcg/releases/LCG_97a/ROOT/v6.20.06/x86_64-centos7-gcc8-opt/include -I/ustcfs2/yfu/pku_resbos/NewResBos2Test/resbos2/include -I/ustcfs2/yfu/pku_resbos/NewResBos2Test/resbos2/external -I/ustcfs2/yfu/pku_resbos/NewResBos2Test/resbos2/buildFit/_deps/fmt-src/include  -O3 -DNDEBUG -fPIC   -ftemplate-depth=1600 -pthread -std=gnu++17 -o CMakeFiles/ResbosUtilities.dir/ThreadPool.cc.o -c /ustcfs2/yfu/pku_resbos/NewResBos2Test/resbos2/src/Utilities/ThreadPool.cc",
  "file": "/ustcfs2/yfu/pku_resbos/NewResBos2Test/resbos2/src/Utilities/ThreadPool.cc"
},
{
  "directory": "/ustcfs2/yfu/pku_resbos/NewResBos2Test/resbos2/buildFit/src/Utilities",
  "command": "/cvmfs/sft.cern.ch/lcg/releases/gcc/8.3.0-cebb0/x86_64-centos7/bin/g++  -DFITTING -DFMT_LOCALE -DFMT_SHARED -DHAVE_ROOT -DLOGURU_UNSAFE_SIGNAL_HANDLER=0 -DLOGURU_WITH_STREAMS=1 -DROOT6 -DResbosUtilities_EXPORTS -I/cvmfs/sft.cern.ch/lcg/releases/LCG_97a/ROOT/v6.20.06/x86_64-centos7-gcc8-opt/include -I/ustcfs2/yfu/pku_resbos/NewResBos2Test/resbos2/include -I/ustcfs2/yfu/pku_resbos/NewResBos2Test/resbos2/external -I/ustcfs2/yfu/pku_resbos/NewResBos2Test/resbos2/buildFit/_deps/fmt-src/include  -O3 -DNDEBUG -fPIC   -ftemplate-depth=1600 -pthread -std=gnu++17 -o CMakeFiles/ResbosUtilities.dir/ThreeVector.cc.o -c /ustcfs2/yfu/pku_resbos/NewResBos2Test/resbos2/src/Utilities/ThreeVector.cc",
  "file": "/ustcfs2/yfu/pku_resbos/NewResBos2Test/resbos2/src/Utilities/ThreeVector.cc"
},
{
  "directory": "/ustcfs2/yfu/pku_resbos/NewResBos2Test/resbos2/buildFit/src/Utilities",
  "command": "/cvmfs/sft.cern.ch/lcg/releases/gcc/8.3.0-cebb0/x86_64-centos7/bin/g++  -DFITTING -DFMT_LOCALE -DFMT_SHARED -DHAVE_ROOT -DLOGURU_UNSAFE_SIGNAL_HANDLER=0 -DLOGURU_WITH_STREAMS=1 -DROOT6 -DResbosUtilities_EXPORTS -I/cvmfs/sft.cern.ch/lcg/releases/LCG_97a/ROOT/v6.20.06/x86_64-centos7-gcc8-opt/include -I/ustcfs2/yfu/pku_resbos/NewResBos2Test/resbos2/include -I/ustcfs2/yfu/pku_resbos/NewResBos2Test/resbos2/external -I/ustcfs2/yfu/pku_resbos/NewResBos2Test/resbos2/buildFit/_deps/fmt-src/include  -O3 -DNDEBUG -fPIC   -ftemplate-depth=1600 -pthread -std=gnu++17 -o CMakeFiles/ResbosUtilities.dir/Utility.cc.o -c /ustcfs2/yfu/pku_resbos/NewResBos2Test/resbos2/src/Utilities/Utility.cc",
  "file": "/ustcfs2/yfu/pku_resbos/NewResBos2Test/resbos2/src/Utilities/Utility.cc"
},
{
  "directory": "/ustcfs2/yfu/pku_resbos/NewResBos2Test/resbos2/buildFit/src/Utilities",
  "command": "/cvmfs/sft.cern.ch/lcg/releases/gcc/8.3.0-cebb0/x86_64-centos7/bin/g++  -DFITTING -DFMT_LOCALE -DFMT_SHARED -DHAVE_ROOT -DLOGURU_UNSAFE_SIGNAL_HANDLER=0 -DLOGURU_WITH_STREAMS=1 -DROOT6 -DResbosUtilities_EXPORTS -I/cvmfs/sft.cern.ch/lcg/releases/LCG_97a/ROOT/v6.20.06/x86_64-centos7-gcc8-opt/include -I/ustcfs2/yfu/pku_resbos/NewResBos2Test/resbos2/include -I/ustcfs2/yfu/pku_resbos/NewResBos2Test/resbos2/external -I/ustcfs2/yfu/pku_resbos/NewResBos2Test/resbos2/buildFit/_deps/fmt-src/include  -O3 -DNDEBUG -fPIC   -ftemplate-depth=1600 -pthread -std=gnu++17 -o CMakeFiles/ResbosUtilities.dir/Vegas.cc.o -c /ustcfs2/yfu/pku_resbos/NewResBos2Test/resbos2/src/Utilities/Vegas.cc",
  "file": "/ustcfs2/yfu/pku_resbos/NewResBos2Test/resbos2/src/Utilities/Vegas.cc"
},
{
  "directory": "/ustcfs2/yfu/pku_resbos/NewResBos2Test/resbos2/buildFit/src/Beam",
  "command": "/cvmfs/sft.cern.ch/lcg/releases/gcc/8.3.0-cebb0/x86_64-centos7/bin/g++  -DFITTING -DFMT_LOCALE -DFMT_SHARED -DHAVE_ROOT -DLOGURU_UNSAFE_SIGNAL_HANDLER=0 -DLOGURU_WITH_STREAMS=1 -DROOT6 -DResbosBeam_EXPORTS -I/cvmfs/sft.cern.ch/lcg/releases/LCG_97a/ROOT/v6.20.06/x86_64-centos7-gcc8-opt/include -I/ustcfs2/yfu/pku_resbos/NewResBos2Test/resbos2/include -I/ustcfs2/yfu/pku_resbos/NewResBos2Test/resbos2/external -I/ustcfs2/yfu/pku_resbos/NewResBos2Test/resbos2/buildFit/_deps/fmt-src/include -isystem /home/yfu/LHAPDF/include -isystem /home/yfu/HOPPET/include  -O3 -DNDEBUG -fPIC   -ftemplate-depth=1600 -pthread -std=gnu++17 -o CMakeFiles/ResbosBeam.dir/Beam.cc.o -c /ustcfs2/yfu/pku_resbos/NewResBos2Test/resbos2/src/Beam/Beam.cc",
  "file": "/ustcfs2/yfu/pku_resbos/NewResBos2Test/resbos2/src/Beam/Beam.cc"
},
{
  "directory": "/ustcfs2/yfu/pku_resbos/NewResBos2Test/resbos2/buildFit/src/Beam",
  "command": "/cvmfs/sft.cern.ch/lcg/releases/gcc/8.3.0-cebb0/x86_64-centos7/bin/g++  -DFITTING -DFMT_LOCALE -DFMT_SHARED -DHAVE_ROOT -DLOGURU_UNSAFE_SIGNAL_HANDLER=0 -DLOGURU_WITH_STREAMS=1 -DROOT6 -DResbosBeam_EXPORTS -I/cvmfs/sft.cern.ch/lcg/releases/LCG_97a/ROOT/v6.20.06/x86_64-centos7-gcc8-opt/include -I/ustcfs2/yfu/pku_resbos/NewResBos2Test/resbos2/include -I/ustcfs2/yfu/pku_resbos/NewResBos2Test/resbos2/external -I/ustcfs2/yfu/pku_resbos/NewResBos2Test/resbos2/buildFit/_deps/fmt-src/include -isystem /home/yfu/LHAPDF/include -isystem /home/yfu/HOPPET/include  -O3 -DNDEBUG -fPIC   -ftemplate-depth=1600 -pthread -std=gnu++17 -o CMakeFiles/ResbosBeam.dir/Convolution.cc.o -c /ustcfs2/yfu/pku_resbos/NewResBos2Test/resbos2/src/Beam/Convolution.cc",
  "file": "/ustcfs2/yfu/pku_resbos/NewResBos2Test/resbos2/src/Beam/Convolution.cc"
},
{
  "directory": "/ustcfs2/yfu/pku_resbos/NewResBos2Test/resbos2/buildFit/src/Beam",
  "command": "/cvmfs/sft.cern.ch/lcg/releases/gcc/8.3.0-cebb0/x86_64-centos7/bin/g++  -DFITTING -DFMT_LOCALE -DFMT_SHARED -DHAVE_ROOT -DLOGURU_UNSAFE_SIGNAL_HANDLER=0 -DLOGURU_WITH_STREAMS=1 -DROOT6 -DResbosBeam_EXPORTS -I/cvmfs/sft.cern.ch/lcg/releases/LCG_97a/ROOT/v6.20.06/x86_64-centos7-gcc8-opt/include -I/ustcfs2/yfu/pku_resbos/NewResBos2Test/resbos2/include -I/ustcfs2/yfu/pku_resbos/NewResBos2Test/resbos2/external -I/ustcfs2/yfu/pku_resbos/NewResBos2Test/resbos2/buildFit/_deps/fmt-src/include -isystem /home/yfu/LHAPDF/include -isystem /home/yfu/HOPPET/include  -O3 -DNDEBUG -fPIC   -ftemplate-depth=1600 -pthread -std=gnu++17 -o CMakeFiles/ResbosBeam.dir/HoppetInterface.cc.o -c /ustcfs2/yfu/pku_resbos/NewResBos2Test/resbos2/src/Beam/HoppetInterface.cc",
  "file": "/ustcfs2/yfu/pku_resbos/NewResBos2Test/resbos2/src/Beam/HoppetInterface.cc"
},
{
  "directory": "/ustcfs2/yfu/pku_resbos/NewResBos2Test/resbos2/buildFit/src/Beam",
  "command": "/cvmfs/sft.cern.ch/lcg/releases/gcc/8.3.0-cebb0/x86_64-centos7/bin/g++  -DFITTING -DFMT_LOCALE -DFMT_SHARED -DHAVE_ROOT -DLOGURU_UNSAFE_SIGNAL_HANDLER=0 -DLOGURU_WITH_STREAMS=1 -DROOT6 -DResbosBeam_EXPORTS -I/cvmfs/sft.cern.ch/lcg/releases/LCG_97a/ROOT/v6.20.06/x86_64-centos7-gcc8-opt/include -I/ustcfs2/yfu/pku_resbos/NewResBos2Test/resbos2/include -I/ustcfs2/yfu/pku_resbos/NewResBos2Test/resbos2/external -I/ustcfs2/yfu/pku_resbos/NewResBos2Test/resbos2/buildFit/_deps/fmt-src/include -isystem /home/yfu/LHAPDF/include -isystem /home/yfu/HOPPET/include  -O3 -DNDEBUG -fPIC   -ftemplate-depth=1600 -pthread -std=gnu++17 -o CMakeFiles/ResbosBeam.dir/Pdf.cc.o -c /ustcfs2/yfu/pku_resbos/NewResBos2Test/resbos2/src/Beam/Pdf.cc",
  "file": "/ustcfs2/yfu/pku_resbos/NewResBos2Test/resbos2/src/Beam/Pdf.cc"
},
{
  "directory": "/ustcfs2/yfu/pku_resbos/NewResBos2Test/resbos2/buildFit/src/Calculation",
  "command": "/cvmfs/sft.cern.ch/lcg/releases/gcc/8.3.0-cebb0/x86_64-centos7/bin/g++  -DFITTING -DFMT_LOCALE -DFMT_SHARED -DHAVE_ROOT -DLOGURU_UNSAFE_SIGNAL_HANDLER=0 -DLOGURU_WITH_STREAMS=1 -DROOT6 -DResbosCalculation_EXPORTS -I/cvmfs/sft.cern.ch/lcg/releases/LCG_97a/ROOT/v6.20.06/x86_64-centos7-gcc8-opt/include -I/ustcfs2/yfu/pku_resbos/NewResBos2Test/resbos2/include -I/ustcfs2/yfu/pku_resbos/NewResBos2Test/resbos2/external -I/ustcfs2/yfu/pku_resbos/NewResBos2Test/resbos2/buildFit/_deps/fmt-src/include  -O3 -DNDEBUG -fPIC   -ftemplate-depth=1600 -pthread -std=gnu++17 -o CMakeFiles/ResbosCalculation.dir/Calculation.cc.o -c /ustcfs2/yfu/pku_resbos/NewResBos2Test/resbos2/src/Calculation/Calculation.cc",
  "file": "/ustcfs2/yfu/pku_resbos/NewResBos2Test/resbos2/src/Calculation/Calculation.cc"
},
{
  "directory": "/ustcfs2/yfu/pku_resbos/NewResBos2Test/resbos2/buildFit/src/Calculation",
  "command": "/cvmfs/sft.cern.ch/lcg/releases/gcc/8.3.0-cebb0/x86_64-centos7/bin/g++  -DFITTING -DFMT_LOCALE -DFMT_SHARED -DHAVE_ROOT -DLOGURU_UNSAFE_SIGNAL_HANDLER=0 -DLOGURU_WITH_STREAMS=1 -DROOT6 -DResbosCalculation_EXPORTS -I/cvmfs/sft.cern.ch/lcg/releases/LCG_97a/ROOT/v6.20.06/x86_64-centos7-gcc8-opt/include -I/ustcfs2/yfu/pku_resbos/NewResBos2Test/resbos2/include -I/ustcfs2/yfu/pku_resbos/NewResBos2Test/resbos2/external -I/ustcfs2/yfu/pku_resbos/NewResBos2Test/resbos2/buildFit/_deps/fmt-src/include  -O3 -DNDEBUG -fPIC   -ftemplate-depth=1600 -pthread -std=gnu++17 -o CMakeFiles/ResbosCalculation.dir/CalculationFactory.cc.o -c /ustcfs2/yfu/pku_resbos/NewResBos2Test/resbos2/src/Calculation/CalculationFactory.cc",
  "file": "/ustcfs2/yfu/pku_resbos/NewResBos2Test/resbos2/src/Calculation/CalculationFactory.cc"
},
{
  "directory": "/ustcfs2/yfu/pku_resbos/NewResBos2Test/resbos2/buildFit/src/Calculation",
  "command": "/cvmfs/sft.cern.ch/lcg/releases/gcc/8.3.0-cebb0/x86_64-centos7/bin/g++  -DFITTING -DFMT_LOCALE -DFMT_SHARED -DHAVE_ROOT -DLOGURU_UNSAFE_SIGNAL_HANDLER=0 -DLOGURU_WITH_STREAMS=1 -DROOT6 -DResbosCalculation_EXPORTS -I/cvmfs/sft.cern.ch/lcg/releases/LCG_97a/ROOT/v6.20.06/x86_64-centos7-gcc8-opt/include -I/ustcfs2/yfu/pku_resbos/NewResBos2Test/resbos2/include -I/ustcfs2/yfu/pku_resbos/NewResBos2Test/resbos2/external -I/ustcfs2/yfu/pku_resbos/NewResBos2Test/resbos2/buildFit/_deps/fmt-src/include  -O3 -DNDEBUG -fPIC   -ftemplate-depth=1600 -pthread -std=gnu++17 -o CMakeFiles/ResbosCalculation.dir/Asymptotic.cc.o -c /ustcfs2/yfu/pku_resbos/NewResBos2Test/resbos2/src/Calculation/Asymptotic.cc",
  "file": "/ustcfs2/yfu/pku_resbos/NewResBos2Test/resbos2/src/Calculation/Asymptotic.cc"
},
{
  "directory": "/ustcfs2/yfu/pku_resbos/NewResBos2Test/resbos2/buildFit/src/Calculation",
  "command": "/cvmfs/sft.cern.ch/lcg/releases/gcc/8.3.0-cebb0/x86_64-centos7/bin/g++  -DFITTING -DFMT_LOCALE -DFMT_SHARED -DHAVE_ROOT -DLOGURU_UNSAFE_SIGNAL_HANDLER=0 -DLOGURU_WITH_STREAMS=1 -DROOT6 -DResbosCalculation_EXPORTS -I/cvmfs/sft.cern.ch/lcg/releases/LCG_97a/ROOT/v6.20.06/x86_64-centos7-gcc8-opt/include -I/ustcfs2/yfu/pku_resbos/NewResBos2Test/resbos2/include -I/ustcfs2/yfu/pku_resbos/NewResBos2Test/resbos2/external -I/ustcfs2/yfu/pku_resbos/NewResBos2Test/resbos2/buildFit/_deps/fmt-src/include  -O3 -DNDEBUG -fPIC   -ftemplate-depth=1600 -pthread -std=gnu++17 -o CMakeFiles/ResbosCalculation.dir/DeltaSigma.cc.o -c /ustcfs2/yfu/pku_resbos/NewResBos2Test/resbos2/src/Calculation/DeltaSigma.cc",
  "file": "/ustcfs2/yfu/pku_resbos/NewResBos2Test/resbos2/src/Calculation/DeltaSigma.cc"
},
{
  "directory": "/ustcfs2/yfu/pku_resbos/NewResBos2Test/resbos2/buildFit/src/Calculation",
  "command": "/cvmfs/sft.cern.ch/lcg/releases/gcc/8.3.0-cebb0/x86_64-centos7/bin/g++  -DFITTING -DFMT_LOCALE -DFMT_SHARED -DHAVE_ROOT -DLOGURU_UNSAFE_SIGNAL_HANDLER=0 -DLOGURU_WITH_STREAMS=1 -DROOT6 -DResbosCalculation_EXPORTS -I/cvmfs/sft.cern.ch/lcg/releases/LCG_97a/ROOT/v6.20.06/x86_64-centos7-gcc8-opt/include -I/ustcfs2/yfu/pku_resbos/NewResBos2Test/resbos2/include -I/ustcfs2/yfu/pku_resbos/NewResBos2Test/resbos2/external -I/ustcfs2/yfu/pku_resbos/NewResBos2Test/resbos2/buildFit/_deps/fmt-src/include  -O3 -DNDEBUG -fPIC   -ftemplate-depth=1600 -pthread -std=gnu++17 -o CMakeFiles/ResbosCalculation.dir/Perturbative.cc.o -c /ustcfs2/yfu/pku_resbos/NewResBos2Test/resbos2/src/Calculation/Perturbative.cc",
  "file": "/ustcfs2/yfu/pku_resbos/NewResBos2Test/resbos2/src/Calculation/Perturbative.cc"
},
{
  "directory": "/ustcfs2/yfu/pku_resbos/NewResBos2Test/resbos2/buildFit/src/Calculation",
  "command": "/cvmfs/sft.cern.ch/lcg/releases/gcc/8.3.0-cebb0/x86_64-centos7/bin/g++  -DFITTING -DFMT_LOCALE -DFMT_SHARED -DHAVE_ROOT -DLOGURU_UNSAFE_SIGNAL_HANDLER=0 -DLOGURU_WITH_STREAMS=1 -DROOT6 -DResbosCalculation_EXPORTS -I/cvmfs/sft.cern.ch/lcg/releases/LCG_97a/ROOT/v6.20.06/x86_64-centos7-gcc8-opt/include -I/ustcfs2/yfu/pku_resbos/NewResBos2Test/resbos2/include -I/ustcfs2/yfu/pku_resbos/NewResBos2Test/resbos2/external -I/ustcfs2/yfu/pku_resbos/NewResBos2Test/resbos2/buildFit/_deps/fmt-src/include  -O3 -DNDEBUG -fPIC   -ftemplate-depth=1600 -pthread -std=gnu++17 -o CMakeFiles/ResbosCalculation.dir/Resummation.cc.o -c /ustcfs2/yfu/pku_resbos/NewResBos2Test/resbos2/src/Calculation/Resummation.cc",
  "file": "/ustcfs2/yfu/pku_resbos/NewResBos2Test/resbos2/src/Calculation/Resummation.cc"
},
{
  "directory": "/ustcfs2/yfu/pku_resbos/NewResBos2Test/resbos2/buildFit/src/Calculation",
  "command": "/cvmfs/sft.cern.ch/lcg/releases/gcc/8.3.0-cebb0/x86_64-centos7/bin/g++  -DFITTING -DFMT_LOCALE -DFMT_SHARED -DHAVE_ROOT -DLOGURU_UNSAFE_SIGNAL_HANDLER=0 -DLOGURU_WITH_STREAMS=1 -DROOT6 -DResbosCalculation_EXPORTS -I/cvmfs/sft.cern.ch/lcg/releases/LCG_97a/ROOT/v6.20.06/x86_64-centos7-gcc8-opt/include -I/ustcfs2/yfu/pku_resbos/NewResBos2Test/resbos2/include -I/ustcfs2/yfu/pku_resbos/NewResBos2Test/resbos2/external -I/ustcfs2/yfu/pku_resbos/NewResBos2Test/resbos2/buildFit/_deps/fmt-src/include  -O3 -DNDEBUG -fPIC   -ftemplate-depth=1600 -pthread -std=gnu++17 -o CMakeFiles/ResbosCalculation.dir/WmA.cc.o -c /ustcfs2/yfu/pku_resbos/NewResBos2Test/resbos2/src/Calculation/WmA.cc",
  "file": "/ustcfs2/yfu/pku_resbos/NewResBos2Test/resbos2/src/Calculation/WmA.cc"
},
{
  "directory": "/ustcfs2/yfu/pku_resbos/NewResBos2Test/resbos2/buildFit/src/Process",
  "command": "/cvmfs/sft.cern.ch/lcg/releases/gcc/8.3.0-cebb0/x86_64-centos7/bin/g++  -DFITTING -DFMT_LOCALE -DFMT_SHARED -DHAVE_ROOT -DLOGURU_UNSAFE_SIGNAL_HANDLER=0 -DLOGURU_WITH_STREAMS=1 -DROOT6 -DResbosProcess_EXPORTS -I/cvmfs/sft.cern.ch/lcg/releases/LCG_97a/ROOT/v6.20.06/x86_64-centos7-gcc8-opt/include -I/ustcfs2/yfu/pku_resbos/NewResBos2Test/resbos2/include -I/ustcfs2/yfu/pku_resbos/NewResBos2Test/resbos2/external -I/ustcfs2/yfu/pku_resbos/NewResBos2Test/resbos2/buildFit/_deps/fmt-src/include  -O3 -DNDEBUG -fPIC   -ftemplate-depth=1600 -pthread -std=gnu++17 -o CMakeFiles/ResbosProcess.dir/Process.cc.o -c /ustcfs2/yfu/pku_resbos/NewResBos2Test/resbos2/src/Process/Process.cc",
  "file": "/ustcfs2/yfu/pku_resbos/NewResBos2Test/resbos2/src/Process/Process.cc"
},
{
  "directory": "/ustcfs2/yfu/pku_resbos/NewResBos2Test/resbos2/buildFit/src/Process",
  "command": "/cvmfs/sft.cern.ch/lcg/releases/gcc/8.3.0-cebb0/x86_64-centos7/bin/g++  -DFITTING -DFMT_LOCALE -DFMT_SHARED -DHAVE_ROOT -DLOGURU_UNSAFE_SIGNAL_HANDLER=0 -DLOGURU_WITH_STREAMS=1 -DROOT6 -DResbosProcess_EXPORTS -I/cvmfs/sft.cern.ch/lcg/releases/LCG_97a/ROOT/v6.20.06/x86_64-centos7-gcc8-opt/include -I/ustcfs2/yfu/pku_resbos/NewResBos2Test/resbos2/include -I/ustcfs2/yfu/pku_resbos/NewResBos2Test/resbos2/external -I/ustcfs2/yfu/pku_resbos/NewResBos2Test/resbos2/buildFit/_deps/fmt-src/include  -O3 -DNDEBUG -fPIC   -ftemplate-depth=1600 -pthread -std=gnu++17 -o CMakeFiles/ResbosProcess.dir/ProcessFactory.cc.o -c /ustcfs2/yfu/pku_resbos/NewResBos2Test/resbos2/src/Process/ProcessFactory.cc",
  "file": "/ustcfs2/yfu/pku_resbos/NewResBos2Test/resbos2/src/Process/ProcessFactory.cc"
},
{
  "directory": "/ustcfs2/yfu/pku_resbos/NewResBos2Test/resbos2/buildFit/src/Process",
  "command": "/cvmfs/sft.cern.ch/lcg/releases/gcc/8.3.0-cebb0/x86_64-centos7/bin/g++  -DFITTING -DFMT_LOCALE -DFMT_SHARED -DHAVE_ROOT -DLOGURU_UNSAFE_SIGNAL_HANDLER=0 -DLOGURU_WITH_STREAMS=1 -DROOT6 -DResbosProcess_EXPORTS -I/cvmfs/sft.cern.ch/lcg/releases/LCG_97a/ROOT/v6.20.06/x86_64-centos7-gcc8-opt/include -I/ustcfs2/yfu/pku_resbos/NewResBos2Test/resbos2/include -I/ustcfs2/yfu/pku_resbos/NewResBos2Test/resbos2/external -I/ustcfs2/yfu/pku_resbos/NewResBos2Test/resbos2/buildFit/_deps/fmt-src/include  -O3 -DNDEBUG -fPIC   -ftemplate-depth=1600 -pthread -std=gnu++17 -o CMakeFiles/ResbosProcess.dir/A0.cc.o -c /ustcfs2/yfu/pku_resbos/NewResBos2Test/resbos2/src/Process/A0.cc",
  "file": "/ustcfs2/yfu/pku_resbos/NewResBos2Test/resbos2/src/Process/A0.cc"
},
{
  "directory": "/ustcfs2/yfu/pku_resbos/NewResBos2Test/resbos2/buildFit/src/Process",
  "command": "/cvmfs/sft.cern.ch/lcg/releases/gcc/8.3.0-cebb0/x86_64-centos7/bin/g++  -DFITTING -DFMT_LOCALE -DFMT_SHARED -DHAVE_ROOT -DLOGURU_UNSAFE_SIGNAL_HANDLER=0 -DLOGURU_WITH_STREAMS=1 -DROOT6 -DResbosProcess_EXPORTS -I/cvmfs/sft.cern.ch/lcg/releases/LCG_97a/ROOT/v6.20.06/x86_64-centos7-gcc8-opt/include -I/ustcfs2/yfu/pku_resbos/NewResBos2Test/resbos2/include -I/ustcfs2/yfu/pku_resbos/NewResBos2Test/resbos2/external -I/ustcfs2/yfu/pku_resbos/NewResBos2Test/resbos2/buildFit/_deps/fmt-src/include  -O3 -DNDEBUG -fPIC   -ftemplate-depth=1600 -pthread -std=gnu++17 -o CMakeFiles/ResbosProcess.dir/DrellYan.cc.o -c /ustcfs2/yfu/pku_resbos/NewResBos2Test/resbos2/src/Process/DrellYan.cc",
  "file": "/ustcfs2/yfu/pku_resbos/NewResBos2Test/resbos2/src/Process/DrellYan.cc"
},
{
  "directory": "/ustcfs2/yfu/pku_resbos/NewResBos2Test/resbos2/buildFit/src/Process",
  "command": "/cvmfs/sft.cern.ch/lcg/releases/gcc/8.3.0-cebb0/x86_64-centos7/bin/g++  -DFITTING -DFMT_LOCALE -DFMT_SHARED -DHAVE_ROOT -DLOGURU_UNSAFE_SIGNAL_HANDLER=0 -DLOGURU_WITH_STREAMS=1 -DROOT6 -DResbosProcess_EXPORTS -I/cvmfs/sft.cern.ch/lcg/releases/LCG_97a/ROOT/v6.20.06/x86_64-centos7-gcc8-opt/include -I/ustcfs2/yfu/pku_resbos/NewResBos2Test/resbos2/include -I/ustcfs2/yfu/pku_resbos/NewResBos2Test/resbos2/external -I/ustcfs2/yfu/pku_resbos/NewResBos2Test/resbos2/buildFit/_deps/fmt-src/include  -O3 -DNDEBUG -fPIC   -ftemplate-depth=1600 -pthread -std=gnu++17 -o CMakeFiles/ResbosProcess.dir/Higgs.cc.o -c /ustcfs2/yfu/pku_resbos/NewResBos2Test/resbos2/src/Process/Higgs.cc",
  "file": "/ustcfs2/yfu/pku_resbos/NewResBos2Test/resbos2/src/Process/Higgs.cc"
},
{
  "directory": "/ustcfs2/yfu/pku_resbos/NewResBos2Test/resbos2/buildFit/src/Process",
  "command": "/cvmfs/sft.cern.ch/lcg/releases/gcc/8.3.0-cebb0/x86_64-centos7/bin/g++  -DFITTING -DFMT_LOCALE -DFMT_SHARED -DHAVE_ROOT -DLOGURU_UNSAFE_SIGNAL_HANDLER=0 -DLOGURU_WITH_STREAMS=1 -DROOT6 -DResbosProcess_EXPORTS -I/cvmfs/sft.cern.ch/lcg/releases/LCG_97a/ROOT/v6.20.06/x86_64-centos7-gcc8-opt/include -I/ustcfs2/yfu/pku_resbos/NewResBos2Test/resbos2/include -I/ustcfs2/yfu/pku_resbos/NewResBos2Test/resbos2/external -I/ustcfs2/yfu/pku_resbos/NewResBos2Test/resbos2/buildFit/_deps/fmt-src/include  -O3 -DNDEBUG -fPIC   -ftemplate-depth=1600 -pthread -std=gnu++17 -o CMakeFiles/ResbosProcess.dir/Wpm.cc.o -c /ustcfs2/yfu/pku_resbos/NewResBos2Test/resbos2/src/Process/Wpm.cc",
  "file": "/ustcfs2/yfu/pku_resbos/NewResBos2Test/resbos2/src/Process/Wpm.cc"
},
{
  "directory": "/ustcfs2/yfu/pku_resbos/NewResBos2Test/resbos2/buildFit/src/Process",
  "command": "/cvmfs/sft.cern.ch/lcg/releases/gcc/8.3.0-cebb0/x86_64-centos7/bin/g++  -DFITTING -DFMT_LOCALE -DFMT_SHARED -DHAVE_ROOT -DLOGURU_UNSAFE_SIGNAL_HANDLER=0 -DLOGURU_WITH_STREAMS=1 -DROOT6 -DResbosProcess_EXPORTS -I/cvmfs/sft.cern.ch/lcg/releases/LCG_97a/ROOT/v6.20.06/x86_64-centos7-gcc8-opt/include -I/ustcfs2/yfu/pku_resbos/NewResBos2Test/resbos2/include -I/ustcfs2/yfu/pku_resbos/NewResBos2Test/resbos2/external -I/ustcfs2/yfu/pku_resbos/NewResBos2Test/resbos2/buildFit/_deps/fmt-src/include  -O3 -DNDEBUG -fPIC   -ftemplate-depth=1600 -pthread -std=gnu++17 -o CMakeFiles/ResbosProcess.dir/Z0.cc.o -c /ustcfs2/yfu/pku_resbos/NewResBos2Test/resbos2/src/Process/Z0.cc",
  "file": "/ustcfs2/yfu/pku_resbos/NewResBos2Test/resbos2/src/Process/Z0.cc"
},
{
  "directory": "/ustcfs2/yfu/pku_resbos/NewResBos2Test/resbos2/buildFit/src/User",
  "command": "/cvmfs/sft.cern.ch/lcg/releases/gcc/8.3.0-cebb0/x86_64-centos7/bin/g++  -DFITTING -DHAVE_ROOT -DLOGURU_UNSAFE_SIGNAL_HANDLER=0 -DLOGURU_WITH_STREAMS=1 -DROOT6 -DResbosUser_EXPORTS -I/cvmfs/sft.cern.ch/lcg/releases/LCG_97a/ROOT/v6.20.06/x86_64-centos7-gcc8-opt/include -I/ustcfs2/yfu/pku_resbos/NewResBos2Test/resbos2/include -I/ustcfs2/yfu/pku_resbos/NewResBos2Test/resbos2/external  -O3 -DNDEBUG -fPIC   -ftemplate-depth=1600 -std=gnu++17 -o CMakeFiles/ResbosUser.dir/UserCuts.cc.o -c /ustcfs2/yfu/pku_resbos/NewResBos2Test/resbos2/src/User/UserCuts.cc",
  "file": "/ustcfs2/yfu/pku_resbos/NewResBos2Test/resbos2/src/User/UserCuts.cc"
},
{
  "directory": "/ustcfs2/yfu/pku_resbos/NewResBos2Test/resbos2/buildFit/src/User",
  "command": "/cvmfs/sft.cern.ch/lcg/releases/gcc/8.3.0-cebb0/x86_64-centos7/bin/g++  -DFITTING -DHAVE_ROOT -DLOGURU_UNSAFE_SIGNAL_HANDLER=0 -DLOGURU_WITH_STREAMS=1 -DROOT6 -DResbosUser_EXPORTS -I/cvmfs/sft.cern.ch/lcg/releases/LCG_97a/ROOT/v6.20.06/x86_64-centos7-gcc8-opt/include -I/ustcfs2/yfu/pku_resbos/NewResBos2Test/resbos2/include -I/ustcfs2/yfu/pku_resbos/NewResBos2Test/resbos2/external  -O3 -DNDEBUG -fPIC   -ftemplate-depth=1600 -std=gnu++17 -o CMakeFiles/ResbosUser.dir/UserHistograms.cc.o -c /ustcfs2/yfu/pku_resbos/NewResBos2Test/resbos2/src/User/UserHistograms.cc",
  "file": "/ustcfs2/yfu/pku_resbos/NewResBos2Test/resbos2/src/User/UserHistograms.cc"
},
{
  "directory": "/ustcfs2/yfu/pku_resbos/NewResBos2Test/resbos2/buildFit/src/NonPertFit",
  "command": "/cvmfs/sft.cern.ch/lcg/releases/gcc/8.3.0-cebb0/x86_64-centos7/bin/g++  -DFITTING -DFMT_LOCALE -DFMT_SHARED -DHAVE_ROOT -DLOGURU_UNSAFE_SIGNAL_HANDLER=0 -DLOGURU_WITH_STREAMS=1 -DROOT6 -I/cvmfs/sft.cern.ch/lcg/releases/LCG_97a/ROOT/v6.20.06/x86_64-centos7-gcc8-opt/include -I/ustcfs2/yfu/pku_resbos/NewResBos2Test/resbos2/include -I/ustcfs2/yfu/pku_resbos/NewResBos2Test/resbos2/external -I/home/yfu/BAT/include -I/ustcfs2/yfu/pku_resbos/NewResBos2Test/resbos2/buildFit/_deps/fmt-src/include -I/ustcfs2/yfu/pku_resbos/NewResBos2Test/resbos2/buildFit/_deps/yaml-cpp-src/include -isystem /home/yfu/LHAPDF/include -isystem /home/yfu/HOPPET/include -isystem /home/yfu/lwtnn/build/externals/src/Eigen  -O3 -DNDEBUG   -ftemplate-depth=1600 -pthread -fopenmp -std=gnu++17 -o CMakeFiles/NonPertFit.dir/__/ResBos.cc.o -c /ustcfs2/yfu/pku_resbos/NewResBos2Test/resbos2/src/ResBos.cc",
  "file": "/ustcfs2/yfu/pku_resbos/NewResBos2Test/resbos2/src/ResBos.cc"
},
{
  "directory": "/ustcfs2/yfu/pku_resbos/NewResBos2Test/resbos2/buildFit/src/NonPertFit",
  "command": "/cvmfs/sft.cern.ch/lcg/releases/gcc/8.3.0-cebb0/x86_64-centos7/bin/g++  -DFITTING -DFMT_LOCALE -DFMT_SHARED -DHAVE_ROOT -DLOGURU_UNSAFE_SIGNAL_HANDLER=0 -DLOGURU_WITH_STREAMS=1 -DROOT6 -I/cvmfs/sft.cern.ch/lcg/releases/LCG_97a/ROOT/v6.20.06/x86_64-centos7-gcc8-opt/include -I/ustcfs2/yfu/pku_resbos/NewResBos2Test/resbos2/include -I/ustcfs2/yfu/pku_resbos/NewResBos2Test/resbos2/external -I/home/yfu/BAT/include -I/ustcfs2/yfu/pku_resbos/NewResBos2Test/resbos2/buildFit/_deps/fmt-src/include -I/ustcfs2/yfu/pku_resbos/NewResBos2Test/resbos2/buildFit/_deps/yaml-cpp-src/include -isystem /home/yfu/LHAPDF/include -isystem /home/yfu/HOPPET/include -isystem /home/yfu/lwtnn/build/externals/src/Eigen  -O3 -DNDEBUG   -ftemplate-depth=1600 -pthread -fopenmp -std=gnu++17 -o CMakeFiles/NonPertFit.dir/NonPertFit.cc.o -c /ustcfs2/yfu/pku_resbos/NewResBos2Test/resbos2/src/NonPertFit/NonPertFit.cc",
  "file": "/ustcfs2/yfu/pku_resbos/NewResBos2Test/resbos2/src/NonPertFit/NonPertFit.cc"
},
{
  "directory": "/ustcfs2/yfu/pku_resbos/NewResBos2Test/resbos2/buildFit/src/NonPertFit",
  "command": "/cvmfs/sft.cern.ch/lcg/releases/gcc/8.3.0-cebb0/x86_64-centos7/bin/g++  -DFITTING -DFMT_LOCALE -DFMT_SHARED -DHAVE_ROOT -DLOGURU_UNSAFE_SIGNAL_HANDLER=0 -DLOGURU_WITH_STREAMS=1 -DROOT6 -I/cvmfs/sft.cern.ch/lcg/releases/LCG_97a/ROOT/v6.20.06/x86_64-centos7-gcc8-opt/include -I/ustcfs2/yfu/pku_resbos/NewResBos2Test/resbos2/include -I/ustcfs2/yfu/pku_resbos/NewResBos2Test/resbos2/external -I/home/yfu/BAT/include -I/ustcfs2/yfu/pku_resbos/NewResBos2Test/resbos2/buildFit/_deps/fmt-src/include -I/ustcfs2/yfu/pku_resbos/NewResBos2Test/resbos2/buildFit/_deps/yaml-cpp-src/include -isystem /home/yfu/LHAPDF/include -isystem /home/yfu/HOPPET/include -isystem /home/yfu/lwtnn/build/externals/src/Eigen  -O3 -DNDEBUG   -ftemplate-depth=1600 -pthread -fopenmp -std=gnu++17 -o CMakeFiles/NonPertFit.dir/FitNonPert.cc.o -c /ustcfs2/yfu/pku_resbos/NewResBos2Test/resbos2/src/NonPertFit/FitNonPert.cc",
  "file": "/ustcfs2/yfu/pku_resbos/NewResBos2Test/resbos2/src/NonPertFit/FitNonPert.cc"
},
{
  "directory": "/ustcfs2/yfu/pku_resbos/NewResBos2Test/resbos2/buildFit/src/NonPertFit",
  "command": "/cvmfs/sft.cern.ch/lcg/releases/gcc/8.3.0-cebb0/x86_64-centos7/bin/g++  -DFITTING -DFMT_LOCALE -DFMT_SHARED -DHAVE_ROOT -DLOGURU_UNSAFE_SIGNAL_HANDLER=0 -DLOGURU_WITH_STREAMS=1 -DROOT6 -I/cvmfs/sft.cern.ch/lcg/releases/LCG_97a/ROOT/v6.20.06/x86_64-centos7-gcc8-opt/include -I/ustcfs2/yfu/pku_resbos/NewResBos2Test/resbos2/include -I/ustcfs2/yfu/pku_resbos/NewResBos2Test/resbos2/external -I/home/yfu/BAT/include -I/ustcfs2/yfu/pku_resbos/NewResBos2Test/resbos2/buildFit/_deps/fmt-src/include -I/ustcfs2/yfu/pku_resbos/NewResBos2Test/resbos2/buildFit/_deps/yaml-cpp-src/include -isystem /home/yfu/LHAPDF/include -isystem /home/yfu/HOPPET/include -isystem /home/yfu/lwtnn/build/externals/src/Eigen  -O3 -DNDEBUG   -ftemplate-depth=1600 -pthread -fopenmp -std=gnu++17 -o CMakeFiles/NonPertFit.dir/Experiment.cc.o -c /ustcfs2/yfu/pku_resbos/NewResBos2Test/resbos2/src/NonPertFit/Experiment.cc",
  "file": "/ustcfs2/yfu/pku_resbos/NewResBos2Test/resbos2/src/NonPertFit/Experiment.cc"
},
{
  "directory": "/ustcfs2/yfu/pku_resbos/NewResBos2Test/resbos2/buildFit/src/NonPertFit",
  "command": "/cvmfs/sft.cern.ch/lcg/releases/gcc/8.3.0-cebb0/x86_64-centos7/bin/g++  -DFITTING -DFMT_LOCALE -DFMT_SHARED -DHAVE_ROOT -DLOGURU_UNSAFE_SIGNAL_HANDLER=0 -DLOGURU_WITH_STREAMS=1 -DROOT6 -I/cvmfs/sft.cern.ch/lcg/releases/LCG_97a/ROOT/v6.20.06/x86_64-centos7-gcc8-opt/include -I/ustcfs2/yfu/pku_resbos/NewResBos2Test/resbos2/include -I/ustcfs2/yfu/pku_resbos/NewResBos2Test/resbos2/external -I/home/yfu/BAT/include -I/ustcfs2/yfu/pku_resbos/NewResBos2Test/resbos2/buildFit/_deps/fmt-src/include -I/ustcfs2/yfu/pku_resbos/NewResBos2Test/resbos2/buildFit/_deps/yaml-cpp-src/include -isystem /home/yfu/LHAPDF/include -isystem /home/yfu/HOPPET/include -isystem /home/yfu/lwtnn/build/externals/src/Eigen  -O3 -DNDEBUG   -ftemplate-depth=1600 -pthread -fopenmp -std=gnu++17 -o CMakeFiles/NonPertFit.dir/Dataset.cc.o -c /ustcfs2/yfu/pku_resbos/NewResBos2Test/resbos2/src/NonPertFit/Dataset.cc",
  "file": "/ustcfs2/yfu/pku_resbos/NewResBos2Test/resbos2/src/NonPertFit/Dataset.cc"
}
]